<?xml version="1.0" encoding="UTF-8"?>
<svg xmlns="http://www.w3.org/2000/svg" xmlns:xlink="http://www.w3.org/1999/xlink" width="648pt" height="360pt" viewBox="0 0 648 360" version="1.1">
<defs>
<g>
<symbol overflow="visible" id="glyph0-0">
<path style="stroke:none;" d="M 0.4375 0 L 0.4375 -9.75 L 8.171875 -9.75 L 8.171875 0 Z M 6.953125 -1.21875 L 6.953125 -8.53125 L 1.65625 -8.53125 L 1.65625 -1.21875 Z M 6.953125 -1.21875 "/>
</symbol>
<symbol overflow="visible" id="glyph0-1">
<path style="stroke:none;" d="M 3.671875 -9.5 C 4.898438 -9.5 5.789062 -8.992188 6.34375 -7.984375 C 6.769531 -7.203125 6.984375 -6.128906 6.984375 -4.765625 C 6.984375 -3.472656 6.789062 -2.40625 6.40625 -1.5625 C 5.84375 -0.34375 4.929688 0.265625 3.671875 0.265625 C 2.523438 0.265625 1.675781 -0.234375 1.125 -1.234375 C 0.65625 -2.054688 0.421875 -3.164062 0.421875 -4.5625 C 0.421875 -5.632812 0.5625 -6.5625 0.84375 -7.34375 C 1.363281 -8.78125 2.304688 -9.5 3.671875 -9.5 Z M 3.65625 -0.828125 C 4.28125 -0.828125 4.773438 -1.097656 5.140625 -1.640625 C 5.503906 -2.191406 5.6875 -3.21875 5.6875 -4.71875 C 5.6875 -5.800781 5.554688 -6.691406 5.296875 -7.390625 C 5.035156 -8.085938 4.519531 -8.4375 3.75 -8.4375 C 3.039062 -8.4375 2.523438 -8.101562 2.203125 -7.4375 C 1.878906 -6.769531 1.71875 -5.796875 1.71875 -4.515625 C 1.71875 -3.546875 1.820312 -2.765625 2.03125 -2.171875 C 2.351562 -1.273438 2.894531 -0.828125 3.65625 -0.828125 Z M 3.65625 -0.828125 "/>
</symbol>
<symbol overflow="visible" id="glyph0-2">
<path style="stroke:none;" d="M 0.421875 0 C 0.460938 -0.820312 0.628906 -1.535156 0.921875 -2.140625 C 1.222656 -2.742188 1.800781 -3.296875 2.65625 -3.796875 L 3.921875 -4.53125 C 4.492188 -4.863281 4.894531 -5.144531 5.125 -5.375 C 5.488281 -5.738281 5.671875 -6.160156 5.671875 -6.640625 C 5.671875 -7.191406 5.503906 -7.628906 5.171875 -7.953125 C 4.835938 -8.273438 4.394531 -8.4375 3.84375 -8.4375 C 3.03125 -8.4375 2.46875 -8.128906 2.15625 -7.515625 C 1.976562 -7.179688 1.882812 -6.722656 1.875 -6.140625 L 0.65625 -6.140625 C 0.664062 -6.960938 0.816406 -7.632812 1.109375 -8.15625 C 1.628906 -9.070312 2.546875 -9.53125 3.859375 -9.53125 C 4.941406 -9.53125 5.734375 -9.234375 6.234375 -8.640625 C 6.742188 -8.054688 7 -7.40625 7 -6.6875 C 7 -5.925781 6.726562 -5.273438 6.1875 -4.734375 C 5.882812 -4.421875 5.332031 -4.039062 4.53125 -3.59375 L 3.625 -3.09375 C 3.1875 -2.851562 2.84375 -2.625 2.59375 -2.40625 C 2.15625 -2.019531 1.878906 -1.59375 1.765625 -1.125 L 6.953125 -1.125 L 6.953125 0 Z M 0.421875 0 "/>
</symbol>
<symbol overflow="visible" id="glyph0-3">
<path style="stroke:none;" d="M 1.671875 -2.421875 C 1.753906 -1.742188 2.070312 -1.273438 2.625 -1.015625 C 2.90625 -0.878906 3.234375 -0.8125 3.609375 -0.8125 C 4.316406 -0.8125 4.835938 -1.035156 5.171875 -1.484375 C 5.515625 -1.929688 5.6875 -2.429688 5.6875 -2.984375 C 5.6875 -3.648438 5.484375 -4.164062 5.078125 -4.53125 C 4.679688 -4.894531 4.195312 -5.078125 3.625 -5.078125 C 3.21875 -5.078125 2.863281 -4.992188 2.5625 -4.828125 C 2.269531 -4.671875 2.019531 -4.453125 1.8125 -4.171875 L 0.78125 -4.234375 L 1.5 -9.34375 L 6.4375 -9.34375 L 6.4375 -8.1875 L 2.40625 -8.1875 L 2 -5.546875 C 2.21875 -5.710938 2.425781 -5.835938 2.625 -5.921875 C 2.976562 -6.066406 3.390625 -6.140625 3.859375 -6.140625 C 4.722656 -6.140625 5.457031 -5.859375 6.0625 -5.296875 C 6.675781 -4.734375 6.984375 -4.023438 6.984375 -3.171875 C 6.984375 -2.265625 6.703125 -1.46875 6.140625 -0.78125 C 5.585938 -0.101562 4.703125 0.234375 3.484375 0.234375 C 2.710938 0.234375 2.03125 0.0195312 1.4375 -0.40625 C 0.84375 -0.84375 0.507812 -1.515625 0.4375 -2.421875 Z M 1.671875 -2.421875 "/>
</symbol>
<symbol overflow="visible" id="glyph0-4">
<path style="stroke:none;" d="M 7.109375 -9.34375 L 7.109375 -8.296875 C 6.804688 -8.003906 6.398438 -7.488281 5.890625 -6.75 C 5.378906 -6.019531 4.929688 -5.226562 4.546875 -4.375 C 4.160156 -3.550781 3.867188 -2.800781 3.671875 -2.125 C 3.546875 -1.675781 3.378906 -0.96875 3.171875 0 L 1.859375 0 C 2.148438 -1.8125 2.8125 -3.617188 3.84375 -5.421875 C 4.445312 -6.472656 5.082031 -7.378906 5.75 -8.140625 L 0.5 -8.140625 L 0.5 -9.34375 Z M 7.109375 -9.34375 "/>
</symbol>
<symbol overflow="visible" id="glyph0-5">
<path style="stroke:none;" d="M 1.296875 -6.734375 L 1.296875 -7.640625 C 2.160156 -7.722656 2.765625 -7.863281 3.109375 -8.0625 C 3.453125 -8.257812 3.707031 -8.726562 3.875 -9.46875 L 4.8125 -9.46875 L 4.8125 0 L 3.53125 0 L 3.53125 -6.734375 Z M 1.296875 -6.734375 "/>
</symbol>
<symbol overflow="visible" id="glyph0-6">
<path style="stroke:none;" d="M 6.046875 -4 L 4.5625 -8.296875 L 2.984375 -4 Z M 3.875 -9.75 L 5.359375 -9.75 L 8.90625 0 L 7.453125 0 L 6.46875 -2.921875 L 2.609375 -2.921875 L 1.546875 0 L 0.203125 0 Z M 3.875 -9.75 "/>
</symbol>
<symbol overflow="visible" id="glyph0-7">
<path style="stroke:none;" d="M 0.875 -7.109375 L 2.015625 -7.109375 L 2.015625 -6.09375 C 2.347656 -6.507812 2.703125 -6.804688 3.078125 -6.984375 C 3.453125 -7.171875 3.867188 -7.265625 4.328125 -7.265625 C 5.335938 -7.265625 6.019531 -6.914062 6.375 -6.21875 C 6.570312 -5.832031 6.671875 -5.28125 6.671875 -4.5625 L 6.671875 0 L 5.453125 0 L 5.453125 -4.484375 C 5.453125 -4.910156 5.390625 -5.257812 5.265625 -5.53125 C 5.046875 -5.96875 4.660156 -6.1875 4.109375 -6.1875 C 3.828125 -6.1875 3.59375 -6.160156 3.40625 -6.109375 C 3.082031 -6.003906 2.796875 -5.804688 2.546875 -5.515625 C 2.347656 -5.285156 2.21875 -5.046875 2.15625 -4.796875 C 2.101562 -4.546875 2.078125 -4.1875 2.078125 -3.71875 L 2.078125 0 L 0.875 0 Z M 3.6875 -7.28125 Z M 3.6875 -7.28125 "/>
</symbol>
<symbol overflow="visible" id="glyph0-8">
<path style="stroke:none;" d="M 1.796875 -1.890625 C 1.796875 -1.546875 1.921875 -1.273438 2.171875 -1.078125 C 2.421875 -0.878906 2.71875 -0.78125 3.0625 -0.78125 C 3.488281 -0.78125 3.894531 -0.875 4.28125 -1.0625 C 4.945312 -1.382812 5.28125 -1.914062 5.28125 -2.65625 L 5.28125 -3.625 C 5.132812 -3.53125 4.945312 -3.453125 4.71875 -3.390625 C 4.488281 -3.328125 4.265625 -3.28125 4.046875 -3.25 L 3.3125 -3.15625 C 2.882812 -3.101562 2.5625 -3.015625 2.34375 -2.890625 C 1.976562 -2.679688 1.796875 -2.347656 1.796875 -1.890625 Z M 4.6875 -4.3125 C 4.957031 -4.34375 5.140625 -4.457031 5.234375 -4.65625 C 5.285156 -4.757812 5.3125 -4.910156 5.3125 -5.109375 C 5.3125 -5.515625 5.164062 -5.804688 4.875 -5.984375 C 4.59375 -6.171875 4.179688 -6.265625 3.640625 -6.265625 C 3.015625 -6.265625 2.570312 -6.097656 2.3125 -5.765625 C 2.164062 -5.578125 2.070312 -5.300781 2.03125 -4.9375 L 0.90625 -4.9375 C 0.925781 -5.8125 1.207031 -6.421875 1.75 -6.765625 C 2.300781 -7.109375 2.9375 -7.28125 3.65625 -7.28125 C 4.5 -7.28125 5.179688 -7.117188 5.703125 -6.796875 C 6.222656 -6.484375 6.484375 -5.988281 6.484375 -5.3125 L 6.484375 -1.21875 C 6.484375 -1.09375 6.503906 -0.992188 6.546875 -0.921875 C 6.597656 -0.847656 6.707031 -0.8125 6.875 -0.8125 C 6.925781 -0.8125 6.984375 -0.8125 7.046875 -0.8125 C 7.117188 -0.820312 7.191406 -0.832031 7.265625 -0.84375 L 7.265625 0.03125 C 7.078125 0.0820312 6.9375 0.113281 6.84375 0.125 C 6.75 0.144531 6.613281 0.15625 6.4375 0.15625 C 6.03125 0.15625 5.734375 0.0078125 5.546875 -0.28125 C 5.453125 -0.4375 5.382812 -0.65625 5.34375 -0.9375 C 5.101562 -0.625 4.753906 -0.347656 4.296875 -0.109375 C 3.835938 0.117188 3.332031 0.234375 2.78125 0.234375 C 2.125 0.234375 1.585938 0.0351562 1.171875 -0.359375 C 0.753906 -0.765625 0.546875 -1.265625 0.546875 -1.859375 C 0.546875 -2.523438 0.75 -3.035156 1.15625 -3.390625 C 1.570312 -3.753906 2.113281 -3.976562 2.78125 -4.0625 Z M 3.703125 -7.28125 Z M 3.703125 -7.28125 "/>
</symbol>
<symbol overflow="visible" id="glyph0-9">
<path style="stroke:none;" d=""/>
</symbol>
<symbol overflow="visible" id="glyph0-10">
<path style="stroke:none;" d="M 5.25 -10 C 6.164062 -10 6.957031 -9.820312 7.625 -9.46875 C 8.59375 -8.957031 9.1875 -8.066406 9.40625 -6.796875 L 8.09375 -6.796875 C 7.9375 -7.503906 7.609375 -8.019531 7.109375 -8.34375 C 6.609375 -8.675781 5.976562 -8.84375 5.21875 -8.84375 C 4.3125 -8.84375 3.550781 -8.503906 2.9375 -7.828125 C 2.320312 -7.148438 2.015625 -6.140625 2.015625 -4.796875 C 2.015625 -3.640625 2.265625 -2.695312 2.765625 -1.96875 C 3.273438 -1.238281 4.109375 -0.875 5.265625 -0.875 C 6.140625 -0.875 6.863281 -1.128906 7.4375 -1.640625 C 8.019531 -2.148438 8.320312 -2.976562 8.34375 -4.125 L 5.28125 -4.125 L 5.28125 -5.21875 L 9.5625 -5.21875 L 9.5625 0 L 8.71875 0 L 8.390625 -1.25 C 7.941406 -0.757812 7.546875 -0.421875 7.203125 -0.234375 C 6.628906 0.0976562 5.894531 0.265625 5 0.265625 C 3.84375 0.265625 2.847656 -0.109375 2.015625 -0.859375 C 1.109375 -1.796875 0.65625 -3.082031 0.65625 -4.71875 C 0.65625 -6.351562 1.097656 -7.65625 1.984375 -8.625 C 2.828125 -9.539062 3.914062 -10 5.25 -10 Z M 5.03125 -10.015625 Z M 5.03125 -10.015625 "/>
</symbol>
<symbol overflow="visible" id="glyph0-11">
<path style="stroke:none;" d="M 0.90625 -7.109375 L 2.046875 -7.109375 L 2.046875 -5.875 C 2.140625 -6.113281 2.363281 -6.40625 2.71875 -6.75 C 3.082031 -7.09375 3.503906 -7.265625 3.984375 -7.265625 C 4.003906 -7.265625 4.039062 -7.257812 4.09375 -7.25 C 4.144531 -7.25 4.238281 -7.242188 4.375 -7.234375 L 4.375 -5.96875 C 4.300781 -5.988281 4.234375 -6 4.171875 -6 C 4.109375 -6 4.039062 -6 3.96875 -6 C 3.375 -6 2.914062 -5.804688 2.59375 -5.421875 C 2.269531 -5.035156 2.109375 -4.59375 2.109375 -4.09375 L 2.109375 0 L 0.90625 0 Z M 0.90625 -7.109375 "/>
</symbol>
<symbol overflow="visible" id="glyph0-12">
<path style="stroke:none;" d="M 3.625 -7.3125 C 4.414062 -7.3125 5.0625 -7.113281 5.5625 -6.71875 C 6.070312 -6.332031 6.378906 -5.664062 6.484375 -4.71875 L 5.3125 -4.71875 C 5.238281 -5.15625 5.078125 -5.519531 4.828125 -5.8125 C 4.578125 -6.101562 4.175781 -6.25 3.625 -6.25 C 2.851562 -6.25 2.304688 -5.875 1.984375 -5.125 C 1.773438 -4.644531 1.671875 -4.050781 1.671875 -3.34375 C 1.671875 -2.632812 1.816406 -2.035156 2.109375 -1.546875 C 2.410156 -1.054688 2.882812 -0.8125 3.53125 -0.8125 C 4.03125 -0.8125 4.425781 -0.960938 4.71875 -1.265625 C 5.007812 -1.566406 5.207031 -1.984375 5.3125 -2.515625 L 6.484375 -2.515625 C 6.347656 -1.578125 6.015625 -0.890625 5.484375 -0.453125 C 4.953125 -0.015625 4.269531 0.203125 3.4375 0.203125 C 2.507812 0.203125 1.769531 -0.132812 1.21875 -0.8125 C 0.664062 -1.488281 0.390625 -2.335938 0.390625 -3.359375 C 0.390625 -4.609375 0.691406 -5.578125 1.296875 -6.265625 C 1.898438 -6.960938 2.675781 -7.3125 3.625 -7.3125 Z M 3.4375 -7.28125 Z M 3.4375 -7.28125 "/>
</symbol>
<symbol overflow="visible" id="glyph0-13">
<path style="stroke:none;" d="M 0.875 -7.078125 L 2.09375 -7.078125 L 2.09375 0 L 0.875 0 Z M 0.875 -9.75 L 2.09375 -9.75 L 2.09375 -8.390625 L 0.875 -8.390625 Z M 0.875 -9.75 "/>
</symbol>
<symbol overflow="visible" id="glyph0-14">
<path style="stroke:none;" d="M 1.640625 -3.46875 C 1.640625 -2.707031 1.800781 -2.070312 2.125 -1.5625 C 2.445312 -1.050781 2.960938 -0.796875 3.671875 -0.796875 C 4.222656 -0.796875 4.675781 -1.03125 5.03125 -1.5 C 5.382812 -1.976562 5.5625 -2.660156 5.5625 -3.546875 C 5.5625 -4.453125 5.378906 -5.117188 5.015625 -5.546875 C 4.648438 -5.972656 4.195312 -6.1875 3.65625 -6.1875 C 3.050781 -6.1875 2.5625 -5.957031 2.1875 -5.5 C 1.820312 -5.039062 1.640625 -4.363281 1.640625 -3.46875 Z M 3.4375 -7.234375 C 3.976562 -7.234375 4.429688 -7.117188 4.796875 -6.890625 C 5.015625 -6.753906 5.253906 -6.519531 5.515625 -6.1875 L 5.515625 -9.78125 L 6.671875 -9.78125 L 6.671875 0 L 5.59375 0 L 5.59375 -0.984375 C 5.3125 -0.546875 4.976562 -0.226562 4.59375 -0.03125 C 4.21875 0.15625 3.785156 0.25 3.296875 0.25 C 2.503906 0.25 1.816406 -0.0820312 1.234375 -0.75 C 0.660156 -1.414062 0.375 -2.300781 0.375 -3.40625 C 0.375 -4.4375 0.632812 -5.332031 1.15625 -6.09375 C 1.6875 -6.851562 2.445312 -7.234375 3.4375 -7.234375 Z M 3.4375 -7.234375 "/>
</symbol>
<symbol overflow="visible" id="glyph0-15">
<path style="stroke:none;" d="M 1.15625 -9.75 L 5.546875 -9.75 C 6.410156 -9.75 7.109375 -9.503906 7.640625 -9.015625 C 8.171875 -8.523438 8.4375 -7.835938 8.4375 -6.953125 C 8.4375 -6.191406 8.195312 -5.53125 7.71875 -4.96875 C 7.25 -4.40625 6.523438 -4.125 5.546875 -4.125 L 2.484375 -4.125 L 2.484375 0 L 1.15625 0 Z M 7.109375 -6.953125 C 7.109375 -7.671875 6.84375 -8.15625 6.3125 -8.40625 C 6.019531 -8.539062 5.617188 -8.609375 5.109375 -8.609375 L 2.484375 -8.609375 L 2.484375 -5.234375 L 5.109375 -5.234375 C 5.703125 -5.234375 6.179688 -5.359375 6.546875 -5.609375 C 6.921875 -5.867188 7.109375 -6.316406 7.109375 -6.953125 Z M 7.109375 -6.953125 "/>
</symbol>
<symbol overflow="visible" id="glyph0-16">
<path style="stroke:none;" d="M 3.84375 -7.265625 C 4.34375 -7.265625 4.828125 -7.144531 5.296875 -6.90625 C 5.773438 -6.675781 6.140625 -6.375 6.390625 -6 C 6.628906 -5.632812 6.785156 -5.210938 6.859375 -4.734375 C 6.929688 -4.410156 6.96875 -3.890625 6.96875 -3.171875 L 1.765625 -3.171875 C 1.785156 -2.453125 1.953125 -1.875 2.265625 -1.4375 C 2.585938 -1 3.082031 -0.78125 3.75 -0.78125 C 4.375 -0.78125 4.875 -0.988281 5.25 -1.40625 C 5.457031 -1.644531 5.601562 -1.921875 5.6875 -2.234375 L 6.875 -2.234375 C 6.84375 -1.972656 6.738281 -1.679688 6.5625 -1.359375 C 6.382812 -1.035156 6.1875 -0.773438 5.96875 -0.578125 C 5.601562 -0.222656 5.15625 0.015625 4.625 0.140625 C 4.332031 0.210938 4.007812 0.25 3.65625 0.25 C 2.769531 0.25 2.019531 -0.0664062 1.40625 -0.703125 C 0.789062 -1.347656 0.484375 -2.253906 0.484375 -3.421875 C 0.484375 -4.554688 0.789062 -5.476562 1.40625 -6.1875 C 2.03125 -6.90625 2.84375 -7.265625 3.84375 -7.265625 Z M 5.734375 -4.125 C 5.691406 -4.644531 5.582031 -5.054688 5.40625 -5.359375 C 5.070312 -5.929688 4.523438 -6.21875 3.765625 -6.21875 C 3.210938 -6.21875 2.75 -6.019531 2.375 -5.625 C 2.007812 -5.226562 1.816406 -4.726562 1.796875 -4.125 Z M 3.71875 -7.28125 Z M 3.71875 -7.28125 "/>
</symbol>
<symbol overflow="visible" id="glyph0-17">
<path style="stroke:none;" d="M 0.34375 -0.9375 L 4.5625 -6.046875 L 0.65625 -6.046875 L 0.65625 -7.109375 L 6.171875 -7.109375 L 6.171875 -6.140625 L 1.984375 -1.0625 L 6.296875 -1.0625 L 6.296875 0 L 0.34375 0 Z M 3.421875 -7.28125 Z M 3.421875 -7.28125 "/>
</symbol>
<symbol overflow="visible" id="glyph0-18">
<path style="stroke:none;" d="M 1.03125 -9.75 L 2.359375 -9.75 L 2.359375 -1.15625 L 7.296875 -1.15625 L 7.296875 0 L 1.03125 0 Z M 1.03125 -9.75 "/>
</symbol>
<symbol overflow="visible" id="glyph0-19">
<path style="stroke:none;" d="M 2.078125 -7.109375 L 2.078125 -2.390625 C 2.078125 -2.023438 2.132812 -1.726562 2.25 -1.5 C 2.457031 -1.070312 2.851562 -0.859375 3.4375 -0.859375 C 4.257812 -0.859375 4.820312 -1.234375 5.125 -1.984375 C 5.289062 -2.378906 5.375 -2.925781 5.375 -3.625 L 5.375 -7.109375 L 6.578125 -7.109375 L 6.578125 0 L 5.4375 0 L 5.453125 -1.046875 C 5.296875 -0.773438 5.101562 -0.546875 4.875 -0.359375 C 4.414062 0.00390625 3.863281 0.1875 3.21875 0.1875 C 2.207031 0.1875 1.515625 -0.148438 1.140625 -0.828125 C 0.941406 -1.191406 0.84375 -1.675781 0.84375 -2.28125 L 0.84375 -7.109375 Z M 3.703125 -7.28125 Z M 3.703125 -7.28125 "/>
</symbol>
<symbol overflow="visible" id="glyph0-20">
<path style="stroke:none;" d="M 1.59375 -2.234375 C 1.625 -1.835938 1.722656 -1.53125 1.890625 -1.3125 C 2.191406 -0.925781 2.710938 -0.734375 3.453125 -0.734375 C 3.890625 -0.734375 4.273438 -0.828125 4.609375 -1.015625 C 4.953125 -1.210938 5.125 -1.515625 5.125 -1.921875 C 5.125 -2.222656 4.988281 -2.453125 4.71875 -2.609375 C 4.539062 -2.710938 4.203125 -2.828125 3.703125 -2.953125 L 2.75 -3.1875 C 2.144531 -3.34375 1.695312 -3.515625 1.40625 -3.703125 C 0.894531 -4.023438 0.640625 -4.46875 0.640625 -5.03125 C 0.640625 -5.707031 0.878906 -6.253906 1.359375 -6.671875 C 1.847656 -7.085938 2.5 -7.296875 3.3125 -7.296875 C 4.382812 -7.296875 5.160156 -6.984375 5.640625 -6.359375 C 5.929688 -5.953125 6.070312 -5.519531 6.0625 -5.0625 L 4.9375 -5.0625 C 4.914062 -5.332031 4.820312 -5.578125 4.65625 -5.796875 C 4.375 -6.109375 3.894531 -6.265625 3.21875 -6.265625 C 2.769531 -6.265625 2.429688 -6.175781 2.203125 -6 C 1.972656 -5.832031 1.859375 -5.609375 1.859375 -5.328125 C 1.859375 -5.015625 2.007812 -4.769531 2.3125 -4.59375 C 2.488281 -4.476562 2.75 -4.378906 3.09375 -4.296875 L 3.890625 -4.109375 C 4.742188 -3.898438 5.316406 -3.695312 5.609375 -3.5 C 6.078125 -3.195312 6.3125 -2.71875 6.3125 -2.0625 C 6.3125 -1.425781 6.066406 -0.878906 5.578125 -0.421875 C 5.097656 0.0351562 4.367188 0.265625 3.390625 0.265625 C 2.335938 0.265625 1.585938 0.0234375 1.140625 -0.453125 C 0.703125 -0.929688 0.46875 -1.523438 0.4375 -2.234375 Z M 3.359375 -7.28125 Z M 3.359375 -7.28125 "/>
</symbol>
<symbol overflow="visible" id="glyph0-21">
<path style="stroke:none;" d="M 5.5625 -5.28125 C 6.1875 -5.28125 6.675781 -5.40625 7.03125 -5.65625 C 7.394531 -5.90625 7.578125 -6.351562 7.578125 -7 C 7.578125 -7.6875 7.328125 -8.160156 6.828125 -8.421875 C 6.554688 -8.546875 6.191406 -8.609375 5.734375 -8.609375 L 2.515625 -8.609375 L 2.515625 -5.28125 Z M 1.1875 -9.75 L 5.703125 -9.75 C 6.453125 -9.75 7.066406 -9.640625 7.546875 -9.421875 C 8.460938 -9.003906 8.921875 -8.238281 8.921875 -7.125 C 8.921875 -6.539062 8.800781 -6.0625 8.5625 -5.6875 C 8.320312 -5.3125 7.984375 -5.015625 7.546875 -4.796875 C 7.929688 -4.640625 8.21875 -4.429688 8.40625 -4.171875 C 8.59375 -3.921875 8.703125 -3.515625 8.734375 -2.953125 L 8.78125 -1.640625 C 8.789062 -1.273438 8.820312 -1 8.875 -0.8125 C 8.945312 -0.507812 9.085938 -0.3125 9.296875 -0.21875 L 9.296875 0 L 7.671875 0 C 7.628906 -0.0820312 7.59375 -0.191406 7.5625 -0.328125 C 7.539062 -0.460938 7.519531 -0.71875 7.5 -1.09375 L 7.421875 -2.71875 C 7.390625 -3.351562 7.148438 -3.78125 6.703125 -4 C 6.453125 -4.125 6.054688 -4.1875 5.515625 -4.1875 L 2.515625 -4.1875 L 2.515625 0 L 1.1875 0 Z M 1.1875 -9.75 "/>
</symbol>
<symbol overflow="visible" id="glyph0-22">
<path style="stroke:none;" d="M 3.703125 -0.765625 C 4.492188 -0.765625 5.035156 -1.0625 5.328125 -1.65625 C 5.617188 -2.257812 5.765625 -2.929688 5.765625 -3.671875 C 5.765625 -4.335938 5.660156 -4.878906 5.453125 -5.296875 C 5.109375 -5.941406 4.523438 -6.265625 3.703125 -6.265625 C 2.972656 -6.265625 2.441406 -5.984375 2.109375 -5.421875 C 1.785156 -4.867188 1.625 -4.203125 1.625 -3.421875 C 1.625 -2.660156 1.785156 -2.023438 2.109375 -1.515625 C 2.441406 -1.015625 2.972656 -0.765625 3.703125 -0.765625 Z M 3.75 -7.3125 C 4.664062 -7.3125 5.4375 -7.003906 6.0625 -6.390625 C 6.695312 -5.785156 7.015625 -4.890625 7.015625 -3.703125 C 7.015625 -2.554688 6.734375 -1.609375 6.171875 -0.859375 C 5.617188 -0.109375 4.753906 0.265625 3.578125 0.265625 C 2.609375 0.265625 1.832031 -0.0625 1.25 -0.71875 C 0.675781 -1.382812 0.390625 -2.28125 0.390625 -3.40625 C 0.390625 -4.59375 0.691406 -5.539062 1.296875 -6.25 C 1.898438 -6.957031 2.71875 -7.3125 3.75 -7.3125 Z M 3.703125 -7.28125 Z M 3.703125 -7.28125 "/>
</symbol>
<symbol overflow="visible" id="glyph0-23">
<path style="stroke:none;" d="M 3.390625 -7.234375 C 3.941406 -7.234375 4.425781 -7.097656 4.84375 -6.828125 C 5.070312 -6.671875 5.300781 -6.441406 5.53125 -6.140625 L 5.53125 -7.046875 L 6.640625 -7.046875 L 6.640625 -0.578125 C 6.640625 0.328125 6.503906 1.039062 6.234375 1.5625 C 5.742188 2.519531 4.8125 3 3.4375 3 C 2.664062 3 2.019531 2.828125 1.5 2.484375 C 0.976562 2.148438 0.6875 1.613281 0.625 0.875 L 1.84375 0.875 C 1.894531 1.195312 2.007812 1.445312 2.1875 1.625 C 2.457031 1.882812 2.878906 2.015625 3.453125 2.015625 C 4.367188 2.015625 4.96875 1.691406 5.25 1.046875 C 5.425781 0.671875 5.503906 -0.00390625 5.484375 -0.984375 C 5.242188 -0.617188 4.957031 -0.347656 4.625 -0.171875 C 4.289062 0.00390625 3.847656 0.09375 3.296875 0.09375 C 2.523438 0.09375 1.847656 -0.175781 1.265625 -0.71875 C 0.691406 -1.269531 0.40625 -2.175781 0.40625 -3.4375 C 0.40625 -4.632812 0.695312 -5.566406 1.28125 -6.234375 C 1.863281 -6.898438 2.566406 -7.234375 3.390625 -7.234375 Z M 5.53125 -3.578125 C 5.53125 -4.460938 5.347656 -5.113281 4.984375 -5.53125 C 4.628906 -5.957031 4.171875 -6.171875 3.609375 -6.171875 C 2.765625 -6.171875 2.1875 -5.78125 1.875 -5 C 1.71875 -4.582031 1.640625 -4.03125 1.640625 -3.34375 C 1.640625 -2.539062 1.800781 -1.929688 2.125 -1.515625 C 2.445312 -1.097656 2.882812 -0.890625 3.4375 -0.890625 C 4.289062 -0.890625 4.894531 -1.273438 5.25 -2.046875 C 5.4375 -2.484375 5.53125 -2.992188 5.53125 -3.578125 Z M 3.53125 -7.28125 Z M 3.53125 -7.28125 "/>
</symbol>
<symbol overflow="visible" id="glyph0-24">
<path style="stroke:none;" d="M 1 -9.75 L 2.890625 -9.75 L 5.6875 -1.5 L 8.46875 -9.75 L 10.34375 -9.75 L 10.34375 0 L 9.09375 0 L 9.09375 -5.75 C 9.09375 -5.945312 9.097656 -6.273438 9.109375 -6.734375 C 9.117188 -7.203125 9.125 -7.695312 9.125 -8.21875 L 6.34375 0 L 5.03125 0 L 2.234375 -8.21875 L 2.234375 -7.921875 C 2.234375 -7.679688 2.238281 -7.316406 2.25 -6.828125 C 2.257812 -6.335938 2.265625 -5.976562 2.265625 -5.75 L 2.265625 0 L 1 0 Z M 1 -9.75 "/>
</symbol>
<symbol overflow="visible" id="glyph0-25">
<path style="stroke:none;" d="M 0.90625 -9.75 L 2.109375 -9.75 L 2.109375 0 L 0.90625 0 Z M 0.90625 -9.75 "/>
</symbol>
<symbol overflow="visible" id="glyph0-26">
<path style="stroke:none;" d="M 0.875 -7.109375 L 2.0625 -7.109375 L 2.0625 -6.09375 C 2.34375 -6.445312 2.597656 -6.703125 2.828125 -6.859375 C 3.222656 -7.128906 3.671875 -7.265625 4.171875 -7.265625 C 4.734375 -7.265625 5.1875 -7.125 5.53125 -6.84375 C 5.726562 -6.6875 5.90625 -6.453125 6.0625 -6.140625 C 6.332031 -6.523438 6.644531 -6.804688 7 -6.984375 C 7.363281 -7.171875 7.765625 -7.265625 8.203125 -7.265625 C 9.160156 -7.265625 9.8125 -6.921875 10.15625 -6.234375 C 10.34375 -5.859375 10.4375 -5.359375 10.4375 -4.734375 L 10.4375 0 L 9.203125 0 L 9.203125 -4.9375 C 9.203125 -5.414062 9.082031 -5.738281 8.84375 -5.90625 C 8.601562 -6.082031 8.316406 -6.171875 7.984375 -6.171875 C 7.515625 -6.171875 7.109375 -6.015625 6.765625 -5.703125 C 6.429688 -5.390625 6.265625 -4.867188 6.265625 -4.140625 L 6.265625 0 L 5.046875 0 L 5.046875 -4.640625 C 5.046875 -5.117188 4.988281 -5.46875 4.875 -5.6875 C 4.6875 -6.019531 4.347656 -6.1875 3.859375 -6.1875 C 3.398438 -6.1875 2.988281 -6.007812 2.625 -5.65625 C 2.257812 -5.3125 2.078125 -4.679688 2.078125 -3.765625 L 2.078125 0 L 0.875 0 Z M 0.875 -7.109375 "/>
</symbol>
<symbol overflow="visible" id="glyph0-27">
<path style="stroke:none;" d="M 4.78125 -1.125 C 5.226562 -1.125 5.59375 -1.171875 5.875 -1.265625 C 6.394531 -1.441406 6.816406 -1.773438 7.140625 -2.265625 C 7.398438 -2.660156 7.585938 -3.164062 7.703125 -3.78125 C 7.773438 -4.144531 7.8125 -4.484375 7.8125 -4.796875 C 7.8125 -6.003906 7.566406 -6.941406 7.078125 -7.609375 C 6.597656 -8.273438 5.828125 -8.609375 4.765625 -8.609375 L 2.421875 -8.609375 L 2.421875 -1.125 Z M 1.09375 -9.75 L 5.046875 -9.75 C 6.390625 -9.75 7.429688 -9.273438 8.171875 -8.328125 C 8.828125 -7.460938 9.15625 -6.363281 9.15625 -5.03125 C 9.15625 -3.988281 8.957031 -3.050781 8.5625 -2.21875 C 7.882812 -0.738281 6.707031 0 5.03125 0 L 1.09375 0 Z M 1.09375 -9.75 "/>
</symbol>
<symbol overflow="visible" id="glyph0-28">
<path style="stroke:none;" d="M 0.78125 -9.78125 L 1.9375 -9.78125 L 1.9375 -6.25 C 2.207031 -6.582031 2.519531 -6.835938 2.875 -7.015625 C 3.238281 -7.203125 3.632812 -7.296875 4.0625 -7.296875 C 4.945312 -7.296875 5.664062 -6.988281 6.21875 -6.375 C 6.769531 -5.769531 7.046875 -4.875 7.046875 -3.6875 C 7.046875 -2.5625 6.769531 -1.628906 6.21875 -0.890625 C 5.675781 -0.148438 4.925781 0.21875 3.96875 0.21875 C 3.425781 0.21875 2.96875 0.0859375 2.59375 -0.171875 C 2.375 -0.316406 2.140625 -0.5625 1.890625 -0.90625 L 1.890625 0 L 0.78125 0 Z M 3.890625 -0.828125 C 4.535156 -0.828125 5.019531 -1.082031 5.34375 -1.59375 C 5.664062 -2.113281 5.828125 -2.789062 5.828125 -3.625 C 5.828125 -4.375 5.664062 -4.992188 5.34375 -5.484375 C 5.019531 -5.972656 4.546875 -6.21875 3.921875 -6.21875 C 3.378906 -6.21875 2.898438 -6.015625 2.484375 -5.609375 C 2.078125 -5.210938 1.875 -4.550781 1.875 -3.625 C 1.875 -2.957031 1.957031 -2.414062 2.125 -2 C 2.445312 -1.21875 3.035156 -0.828125 3.890625 -0.828125 Z M 3.890625 -0.828125 "/>
</symbol>
<symbol overflow="visible" id="glyph0-29">
<path style="stroke:none;" d="M 1.890625 -3.140625 C 1.921875 -2.585938 2.054688 -2.140625 2.296875 -1.796875 C 2.734375 -1.148438 3.503906 -0.828125 4.609375 -0.828125 C 5.097656 -0.828125 5.546875 -0.898438 5.953125 -1.046875 C 6.742188 -1.316406 7.140625 -1.804688 7.140625 -2.515625 C 7.140625 -3.046875 6.972656 -3.425781 6.640625 -3.65625 C 6.304688 -3.875 5.78125 -4.066406 5.0625 -4.234375 L 3.75 -4.53125 C 2.882812 -4.71875 2.269531 -4.929688 1.90625 -5.171875 C 1.289062 -5.578125 0.984375 -6.1875 0.984375 -7 C 0.984375 -7.875 1.285156 -8.59375 1.890625 -9.15625 C 2.492188 -9.71875 3.351562 -10 4.46875 -10 C 5.488281 -10 6.351562 -9.75 7.0625 -9.25 C 7.78125 -8.757812 8.140625 -7.972656 8.140625 -6.890625 L 6.90625 -6.890625 C 6.832031 -7.410156 6.691406 -7.8125 6.484375 -8.09375 C 6.078125 -8.601562 5.390625 -8.859375 4.421875 -8.859375 C 3.648438 -8.859375 3.09375 -8.691406 2.75 -8.359375 C 2.40625 -8.035156 2.234375 -7.65625 2.234375 -7.21875 C 2.234375 -6.738281 2.429688 -6.390625 2.828125 -6.171875 C 3.085938 -6.023438 3.679688 -5.847656 4.609375 -5.640625 L 5.96875 -5.328125 C 6.632812 -5.179688 7.144531 -4.976562 7.5 -4.71875 C 8.125 -4.257812 8.4375 -3.597656 8.4375 -2.734375 C 8.4375 -1.648438 8.039062 -0.875 7.25 -0.40625 C 6.46875 0.0507812 5.554688 0.28125 4.515625 0.28125 C 3.296875 0.28125 2.347656 -0.0234375 1.671875 -0.640625 C 0.984375 -1.253906 0.644531 -2.085938 0.65625 -3.140625 Z M 4.5625 -10.015625 Z M 4.5625 -10.015625 "/>
</symbol>
<symbol overflow="visible" id="glyph0-30">
<path style="stroke:none;" d="M 1.03125 -9.75 L 2.59375 -9.75 L 7.515625 -1.859375 L 7.515625 -9.75 L 8.78125 -9.75 L 8.78125 0 L 7.296875 0 L 2.296875 -7.890625 L 2.296875 0 L 1.03125 0 Z M 4.8125 -9.75 Z M 4.8125 -9.75 "/>
</symbol>
<symbol overflow="visible" id="glyph1-0">
<path style="stroke:none;" d="M 0.546875 0 L 0.546875 -12.1875 L 10.234375 -12.1875 L 10.234375 0 Z M 8.703125 -1.53125 L 8.703125 -10.671875 L 2.078125 -10.671875 L 2.078125 -1.53125 Z M 8.703125 -1.53125 "/>
</symbol>
<symbol overflow="visible" id="glyph1-1">
<path style="stroke:none;" d="M 1.453125 -12.1875 L 10.34375 -12.1875 L 10.34375 -10.703125 L 3.0625 -10.703125 L 3.0625 -7 L 9.796875 -7 L 9.796875 -5.59375 L 3.0625 -5.59375 L 3.0625 -1.453125 L 10.46875 -1.453125 L 10.46875 0 L 1.453125 0 Z M 5.953125 -12.1875 Z M 5.953125 -12.1875 "/>
</symbol>
<symbol overflow="visible" id="glyph1-2">
<path style="stroke:none;" d="M 1.984375 -2.796875 C 2.023438 -2.296875 2.148438 -1.910156 2.359375 -1.640625 C 2.734375 -1.160156 3.382812 -0.921875 4.3125 -0.921875 C 4.863281 -0.921875 5.347656 -1.039062 5.765625 -1.28125 C 6.191406 -1.519531 6.40625 -1.894531 6.40625 -2.40625 C 6.40625 -2.78125 6.238281 -3.066406 5.90625 -3.265625 C 5.6875 -3.390625 5.257812 -3.53125 4.625 -3.6875 L 3.4375 -4 C 2.675781 -4.1875 2.117188 -4.394531 1.765625 -4.625 C 1.117188 -5.03125 0.796875 -5.585938 0.796875 -6.296875 C 0.796875 -7.140625 1.097656 -7.820312 1.703125 -8.34375 C 2.304688 -8.863281 3.125 -9.125 4.15625 -9.125 C 5.488281 -9.125 6.453125 -8.726562 7.046875 -7.9375 C 7.421875 -7.445312 7.601562 -6.910156 7.59375 -6.328125 L 6.171875 -6.328125 C 6.148438 -6.671875 6.03125 -6.976562 5.8125 -7.25 C 5.46875 -7.644531 4.875 -7.84375 4.03125 -7.84375 C 3.46875 -7.84375 3.039062 -7.734375 2.75 -7.515625 C 2.457031 -7.304688 2.3125 -7.023438 2.3125 -6.671875 C 2.3125 -6.273438 2.503906 -5.960938 2.890625 -5.734375 C 3.109375 -5.597656 3.4375 -5.476562 3.875 -5.375 L 4.859375 -5.125 C 5.929688 -4.863281 6.648438 -4.613281 7.015625 -4.375 C 7.597656 -3.988281 7.890625 -3.390625 7.890625 -2.578125 C 7.890625 -1.785156 7.585938 -1.097656 6.984375 -0.515625 C 6.378906 0.0546875 5.460938 0.34375 4.234375 0.34375 C 2.921875 0.34375 1.988281 0.0390625 1.4375 -0.5625 C 0.882812 -1.164062 0.585938 -1.910156 0.546875 -2.796875 Z M 4.1875 -9.109375 Z M 4.1875 -9.109375 "/>
</symbol>
<symbol overflow="visible" id="glyph1-3">
<path style="stroke:none;" d="M 1.390625 -11.375 L 2.90625 -11.375 L 2.90625 -8.890625 L 4.328125 -8.890625 L 4.328125 -7.671875 L 2.90625 -7.671875 L 2.90625 -1.875 C 2.90625 -1.5625 3.007812 -1.351562 3.21875 -1.25 C 3.332031 -1.1875 3.523438 -1.15625 3.796875 -1.15625 C 3.867188 -1.15625 3.945312 -1.15625 4.03125 -1.15625 C 4.113281 -1.15625 4.210938 -1.160156 4.328125 -1.171875 L 4.328125 0 C 4.148438 0.0507812 3.96875 0.0859375 3.78125 0.109375 C 3.601562 0.128906 3.40625 0.140625 3.1875 0.140625 C 2.488281 0.140625 2.015625 -0.0351562 1.765625 -0.390625 C 1.515625 -0.753906 1.390625 -1.21875 1.390625 -1.78125 L 1.390625 -7.671875 L 0.1875 -7.671875 L 0.1875 -8.890625 L 1.390625 -8.890625 Z M 1.390625 -11.375 "/>
</symbol>
<symbol overflow="visible" id="glyph1-4">
<path style="stroke:none;" d="M 2.59375 -8.890625 L 2.59375 -2.984375 C 2.59375 -2.535156 2.664062 -2.164062 2.8125 -1.875 C 3.070312 -1.34375 3.566406 -1.078125 4.296875 -1.078125 C 5.335938 -1.078125 6.046875 -1.539062 6.421875 -2.46875 C 6.617188 -2.96875 6.71875 -3.65625 6.71875 -4.53125 L 6.71875 -8.890625 L 8.21875 -8.890625 L 8.21875 0 L 6.8125 0 L 6.828125 -1.3125 C 6.628906 -0.976562 6.382812 -0.691406 6.09375 -0.453125 C 5.53125 0.00390625 4.84375 0.234375 4.03125 0.234375 C 2.757812 0.234375 1.894531 -0.1875 1.4375 -1.03125 C 1.1875 -1.476562 1.0625 -2.082031 1.0625 -2.84375 L 1.0625 -8.890625 Z M 4.640625 -9.109375 Z M 4.640625 -9.109375 "/>
</symbol>
<symbol overflow="visible" id="glyph1-5">
<path style="stroke:none;" d="M 2.046875 -4.34375 C 2.046875 -3.382812 2.242188 -2.582031 2.640625 -1.9375 C 3.046875 -1.300781 3.695312 -0.984375 4.59375 -0.984375 C 5.28125 -0.984375 5.847656 -1.28125 6.296875 -1.875 C 6.742188 -2.46875 6.96875 -3.320312 6.96875 -4.4375 C 6.96875 -5.5625 6.738281 -6.394531 6.28125 -6.9375 C 5.820312 -7.476562 5.253906 -7.75 4.578125 -7.75 C 3.816406 -7.75 3.203125 -7.457031 2.734375 -6.875 C 2.273438 -6.300781 2.046875 -5.457031 2.046875 -4.34375 Z M 4.296875 -9.046875 C 4.972656 -9.046875 5.539062 -8.898438 6 -8.609375 C 6.269531 -8.453125 6.570312 -8.164062 6.90625 -7.75 L 6.90625 -12.234375 L 8.34375 -12.234375 L 8.34375 0 L 7 0 L 7 -1.234375 C 6.644531 -0.691406 6.226562 -0.296875 5.75 -0.046875 C 5.28125 0.191406 4.738281 0.3125 4.125 0.3125 C 3.132812 0.3125 2.273438 -0.101562 1.546875 -0.9375 C 0.828125 -1.769531 0.46875 -2.878906 0.46875 -4.265625 C 0.46875 -5.554688 0.796875 -6.675781 1.453125 -7.625 C 2.117188 -8.570312 3.066406 -9.046875 4.296875 -9.046875 Z M 4.296875 -9.046875 "/>
</symbol>
<symbol overflow="visible" id="glyph1-6">
<path style="stroke:none;" d="M 1.09375 -8.84375 L 2.609375 -8.84375 L 2.609375 0 L 1.09375 0 Z M 1.09375 -12.1875 L 2.609375 -12.1875 L 2.609375 -10.5 L 1.09375 -10.5 Z M 1.09375 -12.1875 "/>
</symbol>
<symbol overflow="visible" id="glyph1-7">
<path style="stroke:none;" d="M 2.234375 -2.359375 C 2.234375 -1.929688 2.390625 -1.59375 2.703125 -1.34375 C 3.023438 -1.09375 3.398438 -0.96875 3.828125 -0.96875 C 4.359375 -0.96875 4.867188 -1.09375 5.359375 -1.34375 C 6.191406 -1.738281 6.609375 -2.398438 6.609375 -3.328125 L 6.609375 -4.53125 C 6.421875 -4.40625 6.179688 -4.304688 5.890625 -4.234375 C 5.609375 -4.160156 5.332031 -4.101562 5.0625 -4.0625 L 4.15625 -3.953125 C 3.613281 -3.878906 3.207031 -3.765625 2.9375 -3.609375 C 2.46875 -3.347656 2.234375 -2.929688 2.234375 -2.359375 Z M 5.859375 -5.390625 C 6.203125 -5.429688 6.429688 -5.570312 6.546875 -5.8125 C 6.617188 -5.945312 6.65625 -6.140625 6.65625 -6.390625 C 6.65625 -6.898438 6.472656 -7.269531 6.109375 -7.5 C 5.742188 -7.726562 5.222656 -7.84375 4.546875 -7.84375 C 3.765625 -7.84375 3.210938 -7.632812 2.890625 -7.21875 C 2.703125 -6.976562 2.582031 -6.628906 2.53125 -6.171875 L 1.140625 -6.171875 C 1.160156 -7.265625 1.515625 -8.023438 2.203125 -8.453125 C 2.890625 -8.890625 3.679688 -9.109375 4.578125 -9.109375 C 5.628906 -9.109375 6.476562 -8.910156 7.125 -8.515625 C 7.78125 -8.109375 8.109375 -7.488281 8.109375 -6.65625 L 8.109375 -1.53125 C 8.109375 -1.375 8.140625 -1.25 8.203125 -1.15625 C 8.265625 -1.0625 8.394531 -1.015625 8.59375 -1.015625 C 8.664062 -1.015625 8.742188 -1.015625 8.828125 -1.015625 C 8.910156 -1.023438 9 -1.039062 9.09375 -1.0625 L 9.09375 0.046875 C 8.851562 0.109375 8.671875 0.144531 8.546875 0.15625 C 8.429688 0.175781 8.269531 0.1875 8.0625 0.1875 C 7.539062 0.1875 7.164062 0.00390625 6.9375 -0.359375 C 6.8125 -0.546875 6.726562 -0.816406 6.6875 -1.171875 C 6.375 -0.773438 5.929688 -0.429688 5.359375 -0.140625 C 4.796875 0.148438 4.171875 0.296875 3.484375 0.296875 C 2.660156 0.296875 1.988281 0.046875 1.46875 -0.453125 C 0.945312 -0.953125 0.6875 -1.578125 0.6875 -2.328125 C 0.6875 -3.148438 0.941406 -3.789062 1.453125 -4.25 C 1.960938 -4.707031 2.640625 -4.988281 3.484375 -5.09375 Z M 4.625 -9.109375 Z M 4.625 -9.109375 "/>
</symbol>
<symbol overflow="visible" id="glyph1-8">
<path style="stroke:none;" d="M 1.09375 -8.890625 L 2.515625 -8.890625 L 2.515625 -7.625 C 2.929688 -8.144531 3.375 -8.519531 3.84375 -8.75 C 4.320312 -8.976562 4.847656 -9.09375 5.421875 -9.09375 C 6.679688 -9.09375 7.535156 -8.648438 7.984375 -7.765625 C 8.222656 -7.285156 8.34375 -6.597656 8.34375 -5.703125 L 8.34375 0 L 6.828125 0 L 6.828125 -5.609375 C 6.828125 -6.148438 6.742188 -6.585938 6.578125 -6.921875 C 6.316406 -7.472656 5.835938 -7.75 5.140625 -7.75 C 4.785156 -7.75 4.492188 -7.710938 4.265625 -7.640625 C 3.859375 -7.515625 3.5 -7.269531 3.1875 -6.90625 C 2.9375 -6.613281 2.773438 -6.3125 2.703125 -6 C 2.628906 -5.6875 2.59375 -5.238281 2.59375 -4.65625 L 2.59375 0 L 1.09375 0 Z M 4.609375 -9.109375 Z M 4.609375 -9.109375 "/>
</symbol>
<symbol overflow="visible" id="glyph1-9">
<path style="stroke:none;" d="M 4.796875 -9.09375 C 5.429688 -9.09375 6.039062 -8.941406 6.625 -8.640625 C 7.21875 -8.347656 7.671875 -7.96875 7.984375 -7.5 C 8.285156 -7.050781 8.484375 -6.523438 8.578125 -5.921875 C 8.671875 -5.515625 8.71875 -4.863281 8.71875 -3.96875 L 2.203125 -3.96875 C 2.222656 -3.0625 2.429688 -2.335938 2.828125 -1.796875 C 3.234375 -1.253906 3.851562 -0.984375 4.6875 -0.984375 C 5.46875 -0.984375 6.09375 -1.238281 6.5625 -1.75 C 6.820312 -2.050781 7.007812 -2.398438 7.125 -2.796875 L 8.59375 -2.796875 C 8.550781 -2.460938 8.421875 -2.09375 8.203125 -1.6875 C 7.984375 -1.289062 7.738281 -0.96875 7.46875 -0.71875 C 7.019531 -0.269531 6.457031 0.03125 5.78125 0.1875 C 5.425781 0.269531 5.019531 0.3125 4.5625 0.3125 C 3.457031 0.3125 2.519531 -0.0859375 1.75 -0.890625 C 0.976562 -1.691406 0.59375 -2.820312 0.59375 -4.28125 C 0.59375 -5.707031 0.976562 -6.863281 1.75 -7.75 C 2.53125 -8.644531 3.546875 -9.09375 4.796875 -9.09375 Z M 7.1875 -5.15625 C 7.125 -5.800781 6.976562 -6.316406 6.75 -6.703125 C 6.34375 -7.421875 5.660156 -7.78125 4.703125 -7.78125 C 4.015625 -7.78125 3.4375 -7.53125 2.96875 -7.03125 C 2.507812 -6.539062 2.265625 -5.914062 2.234375 -5.15625 Z M 4.65625 -9.109375 Z M 4.65625 -9.109375 "/>
</symbol>
<symbol overflow="visible" id="glyph2-0">
<path style="stroke:none;" d="M 0 -0.546875 L -12.1875 -0.546875 L -12.1875 -10.234375 L 0 -10.234375 Z M -1.53125 -8.703125 L -10.671875 -8.703125 L -10.671875 -2.078125 L -1.53125 -2.078125 Z M -1.53125 -8.703125 "/>
</symbol>
<symbol overflow="visible" id="glyph2-1">
<path style="stroke:none;" d="M -12.1875 -1.453125 L -12.1875 -6.9375 C -12.1875 -8.019531 -11.878906 -8.894531 -11.265625 -9.5625 C -10.660156 -10.226562 -9.804688 -10.5625 -8.703125 -10.5625 C -7.742188 -10.5625 -6.910156 -10.265625 -6.203125 -9.671875 C -5.503906 -9.078125 -5.15625 -8.164062 -5.15625 -6.9375 L -5.15625 -3.109375 L 0 -3.109375 L 0 -1.453125 Z M -8.6875 -8.890625 C -9.582031 -8.890625 -10.191406 -8.554688 -10.515625 -7.890625 C -10.691406 -7.523438 -10.78125 -7.023438 -10.78125 -6.390625 L -10.78125 -3.109375 L -6.546875 -3.109375 L -6.546875 -6.390625 C -6.546875 -7.128906 -6.703125 -7.726562 -7.015625 -8.1875 C -7.335938 -8.65625 -7.894531 -8.890625 -8.6875 -8.890625 Z M -8.6875 -8.890625 "/>
</symbol>
<symbol overflow="visible" id="glyph2-2">
<path style="stroke:none;" d="M -0.96875 -4.625 C -0.96875 -5.613281 -1.34375 -6.289062 -2.09375 -6.65625 C -2.84375 -7.03125 -3.675781 -7.21875 -4.59375 -7.21875 C -5.414062 -7.21875 -6.085938 -7.082031 -6.609375 -6.8125 C -7.429688 -6.394531 -7.84375 -5.671875 -7.84375 -4.640625 C -7.84375 -3.722656 -7.492188 -3.054688 -6.796875 -2.640625 C -6.097656 -2.234375 -5.257812 -2.03125 -4.28125 -2.03125 C -3.332031 -2.03125 -2.539062 -2.234375 -1.90625 -2.640625 C -1.28125 -3.054688 -0.96875 -3.71875 -0.96875 -4.625 Z M -9.140625 -4.6875 C -9.140625 -5.832031 -8.757812 -6.800781 -8 -7.59375 C -7.238281 -8.382812 -6.113281 -8.78125 -4.625 -8.78125 C -3.195312 -8.78125 -2.015625 -8.429688 -1.078125 -7.734375 C -0.140625 -7.035156 0.328125 -5.953125 0.328125 -4.484375 C 0.328125 -3.253906 -0.0820312 -2.28125 -0.90625 -1.5625 C -1.738281 -0.84375 -2.851562 -0.484375 -4.25 -0.484375 C -5.738281 -0.484375 -6.925781 -0.863281 -7.8125 -1.625 C -8.695312 -2.382812 -9.140625 -3.40625 -9.140625 -4.6875 Z M -9.109375 -4.625 Z M -9.109375 -4.625 "/>
</symbol>
<symbol overflow="visible" id="glyph2-3">
<path style="stroke:none;" d="M -4.34375 -2.046875 C -3.382812 -2.046875 -2.582031 -2.242188 -1.9375 -2.640625 C -1.300781 -3.046875 -0.984375 -3.695312 -0.984375 -4.59375 C -0.984375 -5.28125 -1.28125 -5.847656 -1.875 -6.296875 C -2.46875 -6.742188 -3.320312 -6.96875 -4.4375 -6.96875 C -5.5625 -6.96875 -6.394531 -6.738281 -6.9375 -6.28125 C -7.476562 -5.820312 -7.75 -5.253906 -7.75 -4.578125 C -7.75 -3.816406 -7.457031 -3.203125 -6.875 -2.734375 C -6.300781 -2.273438 -5.457031 -2.046875 -4.34375 -2.046875 Z M -9.046875 -4.296875 C -9.046875 -4.972656 -8.898438 -5.539062 -8.609375 -6 C -8.453125 -6.269531 -8.164062 -6.570312 -7.75 -6.90625 L -12.234375 -6.90625 L -12.234375 -8.34375 L 0 -8.34375 L 0 -7 L -1.234375 -7 C -0.691406 -6.644531 -0.296875 -6.226562 -0.046875 -5.75 C 0.191406 -5.28125 0.3125 -4.738281 0.3125 -4.125 C 0.3125 -3.132812 -0.101562 -2.273438 -0.9375 -1.546875 C -1.769531 -0.828125 -2.878906 -0.46875 -4.265625 -0.46875 C -5.554688 -0.46875 -6.675781 -0.796875 -7.625 -1.453125 C -8.570312 -2.117188 -9.046875 -3.066406 -9.046875 -4.296875 Z M -9.046875 -4.296875 "/>
</symbol>
<symbol overflow="visible" id="glyph2-4">
<path style="stroke:none;" d="M -8.84375 -1.09375 L -8.84375 -2.609375 L 0 -2.609375 L 0 -1.09375 Z M -12.1875 -1.09375 L -12.1875 -2.609375 L -10.5 -2.609375 L -10.5 -1.09375 Z M -12.1875 -1.09375 "/>
</symbol>
<symbol overflow="visible" id="glyph2-5">
<path style="stroke:none;" d="M -8.890625 -2.59375 L -2.984375 -2.59375 C -2.535156 -2.59375 -2.164062 -2.664062 -1.875 -2.8125 C -1.34375 -3.070312 -1.078125 -3.566406 -1.078125 -4.296875 C -1.078125 -5.335938 -1.539062 -6.046875 -2.46875 -6.421875 C -2.96875 -6.617188 -3.65625 -6.71875 -4.53125 -6.71875 L -8.890625 -6.71875 L -8.890625 -8.21875 L 0 -8.21875 L 0 -6.8125 L -1.3125 -6.828125 C -0.976562 -6.628906 -0.691406 -6.382812 -0.453125 -6.09375 C 0.00390625 -5.53125 0.234375 -4.84375 0.234375 -4.03125 C 0.234375 -2.757812 -0.1875 -1.894531 -1.03125 -1.4375 C -1.476562 -1.1875 -2.082031 -1.0625 -2.84375 -1.0625 L -8.890625 -1.0625 Z M -9.109375 -4.640625 Z M -9.109375 -4.640625 "/>
</symbol>
<symbol overflow="visible" id="glyph2-6">
<path style="stroke:none;" d="M -8.890625 -1.09375 L -8.890625 -2.578125 L -7.625 -2.578125 C -8.0625 -2.929688 -8.378906 -3.25 -8.578125 -3.53125 C -8.921875 -4.03125 -9.09375 -4.59375 -9.09375 -5.21875 C -9.09375 -5.925781 -8.914062 -6.492188 -8.5625 -6.921875 C -8.363281 -7.160156 -8.070312 -7.382812 -7.6875 -7.59375 C -8.164062 -7.914062 -8.519531 -8.300781 -8.75 -8.75 C -8.976562 -9.207031 -9.09375 -9.710938 -9.09375 -10.265625 C -9.09375 -11.460938 -8.660156 -12.273438 -7.796875 -12.703125 C -7.328125 -12.941406 -6.703125 -13.0625 -5.921875 -13.0625 L 0 -13.0625 L 0 -11.5 L -6.171875 -11.5 C -6.765625 -11.5 -7.171875 -11.347656 -7.390625 -11.046875 C -7.617188 -10.753906 -7.734375 -10.398438 -7.734375 -9.984375 C -7.734375 -9.390625 -7.535156 -8.878906 -7.140625 -8.453125 C -6.742188 -8.035156 -6.085938 -7.828125 -5.171875 -7.828125 L 0 -7.828125 L 0 -6.3125 L -5.796875 -6.3125 C -6.398438 -6.3125 -6.84375 -6.238281 -7.125 -6.09375 C -7.539062 -5.863281 -7.75 -5.441406 -7.75 -4.828125 C -7.75 -4.253906 -7.53125 -3.738281 -7.09375 -3.28125 C -6.65625 -2.820312 -5.863281 -2.59375 -4.71875 -2.59375 L 0 -2.59375 L 0 -1.09375 Z M -8.890625 -1.09375 "/>
</symbol>
<symbol overflow="visible" id="glyph3-0">
<path style="stroke:none;" d="M 0.546875 0 L 0.546875 -12.1875 L 10.234375 -12.1875 L 10.234375 0 Z M 8.703125 -1.53125 L 8.703125 -10.671875 L 2.078125 -10.671875 L 2.078125 -1.53125 Z M 8.703125 -1.53125 "/>
</symbol>
<symbol overflow="visible" id="glyph3-1">
<path style="stroke:none;" d="M 3.84375 -12.1875 L 6.203125 -12.1875 L 7.515625 -1.890625 L 13.1875 -12.1875 L 15.53125 -12.1875 L 12.9375 0 L 11.375 0 L 12.90625 -7.203125 C 12.945312 -7.453125 13.035156 -7.863281 13.171875 -8.4375 C 13.304688 -9.007812 13.445312 -9.625 13.59375 -10.28125 L 7.921875 0 L 6.296875 0 L 4.96875 -10.28125 L 4.890625 -9.90625 C 4.828125 -9.613281 4.738281 -9.160156 4.625 -8.546875 C 4.507812 -7.929688 4.421875 -7.484375 4.359375 -7.203125 L 2.828125 0 L 1.25 0 Z M 3.84375 -12.1875 "/>
</symbol>
<symbol overflow="visible" id="glyph3-2">
<path style="stroke:none;" d="M 9.578125 -7.5 C 9.773438 -7.050781 9.863281 -6.523438 9.84375 -5.921875 C 9.84375 -5.515625 9.742188 -4.863281 9.546875 -3.96875 L 3.03125 -3.96875 C 2.875 -3.0625 2.9375 -2.335938 3.21875 -1.796875 C 3.5 -1.253906 4.054688 -0.984375 4.890625 -0.984375 C 5.671875 -0.984375 6.347656 -1.238281 6.921875 -1.75 C 7.253906 -2.050781 7.519531 -2.398438 7.71875 -2.796875 L 9.1875 -2.796875 C 9.070312 -2.460938 8.863281 -2.09375 8.5625 -1.6875 C 8.257812 -1.289062 7.945312 -0.96875 7.625 -0.71875 C 7.070312 -0.269531 6.445312 0.03125 5.75 0.1875 C 5.363281 0.269531 4.941406 0.3125 4.484375 0.3125 C 3.378906 0.3125 2.523438 -0.0859375 1.921875 -0.890625 C 1.328125 -1.691406 1.1875 -2.820312 1.5 -4.28125 C 1.800781 -5.707031 2.429688 -6.863281 3.390625 -7.75 C 4.359375 -8.644531 5.46875 -9.09375 6.71875 -9.09375 C 7.351562 -9.09375 7.9375 -8.941406 8.46875 -8.640625 C 9 -8.347656 9.367188 -7.96875 9.578125 -7.5 Z M 8.265625 -5.15625 C 8.347656 -5.800781 8.316406 -6.316406 8.171875 -6.703125 C 7.921875 -7.421875 7.316406 -7.78125 6.359375 -7.78125 C 5.671875 -7.78125 5.039062 -7.53125 4.46875 -7.03125 C 3.90625 -6.539062 3.523438 -5.914062 3.328125 -5.15625 Z M 8.265625 -5.15625 "/>
</symbol>
<symbol overflow="visible" id="glyph3-3">
<path style="stroke:none;" d="M 4.8125 -10.46875 L 3.328125 -10.46875 L 3.6875 -12.1875 L 5.1875 -12.1875 Z M -0.78125 2.25 C -0.113281 2.226562 0.296875 2.164062 0.453125 2.0625 C 0.609375 1.96875 0.738281 1.664062 0.84375 1.15625 L 2.96875 -8.84375 L 4.46875 -8.84375 L 2.3125 1.3125 C 2.164062 1.96875 1.957031 2.453125 1.6875 2.765625 C 1.21875 3.316406 0.5 3.59375 -0.46875 3.59375 C -0.539062 3.59375 -0.613281 3.585938 -0.6875 3.578125 C -0.769531 3.566406 -0.894531 3.554688 -1.0625 3.546875 Z M -0.78125 2.25 "/>
</symbol>
<symbol overflow="visible" id="glyph3-4">
<path style="stroke:none;" d="M 8.1875 -4.59375 C 8.363281 -5.414062 8.375 -6.085938 8.21875 -6.609375 C 7.96875 -7.429688 7.328125 -7.84375 6.296875 -7.84375 C 5.390625 -7.84375 4.65625 -7.492188 4.09375 -6.796875 C 3.53125 -6.097656 3.144531 -5.257812 2.9375 -4.28125 C 2.726562 -3.332031 2.765625 -2.539062 3.046875 -1.90625 C 3.328125 -1.28125 3.921875 -0.96875 4.828125 -0.96875 C 5.816406 -0.96875 6.570312 -1.34375 7.09375 -2.09375 C 7.625 -2.84375 7.988281 -3.675781 8.1875 -4.59375 Z M 9.75 -4.625 C 9.445312 -3.195312 8.847656 -2.015625 7.953125 -1.078125 C 7.054688 -0.140625 5.875 0.328125 4.40625 0.328125 C 3.1875 0.328125 2.304688 -0.0820312 1.765625 -0.90625 C 1.222656 -1.738281 1.097656 -2.851562 1.390625 -4.25 C 1.710938 -5.738281 2.34375 -6.925781 3.28125 -7.8125 C 4.226562 -8.695312 5.34375 -9.140625 6.625 -9.140625 C 7.769531 -9.140625 8.65625 -8.757812 9.28125 -8 C 9.914062 -7.238281 10.070312 -6.113281 9.75 -4.625 Z M 9.75 -4.625 "/>
</symbol>
<symbol overflow="visible" id="glyph3-5">
<path style="stroke:none;" d="M 3.015625 -8.890625 L 4.4375 -8.890625 L 4.125 -7.359375 C 4.300781 -7.648438 4.660156 -8.007812 5.203125 -8.4375 C 5.742188 -8.875 6.3125 -9.09375 6.90625 -9.09375 C 6.9375 -9.09375 6.984375 -9.085938 7.046875 -9.078125 C 7.109375 -9.078125 7.21875 -9.066406 7.375 -9.046875 L 7.046875 -7.46875 C 6.960938 -7.488281 6.882812 -7.5 6.8125 -7.5 C 6.738281 -7.507812 6.65625 -7.515625 6.5625 -7.515625 C 5.8125 -7.515625 5.179688 -7.269531 4.671875 -6.78125 C 4.171875 -6.300781 3.847656 -5.742188 3.703125 -5.109375 L 2.625 0 L 1.140625 0 Z M 3.015625 -8.890625 "/>
</symbol>
<symbol overflow="visible" id="glyph3-6">
<path style="stroke:none;" d=""/>
</symbol>
<symbol overflow="visible" id="glyph3-7">
<path style="stroke:none;" d="M 3.8125 -11.375 L 5.328125 -11.375 L 4.796875 -8.890625 L 6.203125 -8.890625 L 5.953125 -7.671875 L 4.53125 -7.671875 L 3.296875 -1.875 C 3.234375 -1.5625 3.296875 -1.351562 3.484375 -1.25 C 3.585938 -1.1875 3.773438 -1.15625 4.046875 -1.15625 C 4.117188 -1.15625 4.195312 -1.15625 4.28125 -1.15625 C 4.363281 -1.15625 4.460938 -1.160156 4.578125 -1.171875 L 4.328125 0 C 4.140625 0.0507812 3.953125 0.0859375 3.765625 0.109375 C 3.578125 0.128906 3.375 0.140625 3.15625 0.140625 C 2.457031 0.140625 2.019531 -0.0351562 1.84375 -0.390625 C 1.664062 -0.753906 1.640625 -1.21875 1.765625 -1.78125 L 3.015625 -7.671875 L 1.8125 -7.671875 L 2.078125 -8.890625 L 3.28125 -8.890625 Z M 3.8125 -11.375 "/>
</symbol>
<symbol overflow="visible" id="glyph3-8">
<path style="stroke:none;" d="M 2.96875 -8.84375 L 4.484375 -8.84375 L 2.609375 0 L 1.09375 0 Z M 3.6875 -12.1875 L 5.203125 -12.1875 L 4.84375 -10.5 L 3.328125 -10.5 Z M 3.6875 -12.1875 "/>
</symbol>
<symbol overflow="visible" id="glyph3-9">
<path style="stroke:none;" d="M 2.984375 -8.890625 L 4.453125 -8.890625 L 4.1875 -7.625 C 4.632812 -8.0625 5.023438 -8.378906 5.359375 -8.578125 C 5.921875 -8.921875 6.515625 -9.09375 7.140625 -9.09375 C 7.847656 -9.09375 8.378906 -8.914062 8.734375 -8.5625 C 8.941406 -8.363281 9.101562 -8.070312 9.21875 -7.6875 C 9.65625 -8.164062 10.117188 -8.519531 10.609375 -8.75 C 11.109375 -8.976562 11.632812 -9.09375 12.1875 -9.09375 C 13.382812 -9.09375 14.109375 -8.660156 14.359375 -7.796875 C 14.492188 -7.328125 14.476562 -6.703125 14.3125 -5.921875 L 13.0625 0 L 11.5 0 L 12.8125 -6.171875 C 12.9375 -6.765625 12.875 -7.171875 12.625 -7.390625 C 12.375 -7.617188 12.035156 -7.734375 11.609375 -7.734375 C 11.023438 -7.734375 10.476562 -7.535156 9.96875 -7.140625 C 9.46875 -6.742188 9.117188 -6.085938 8.921875 -5.171875 L 7.828125 0 L 6.3125 0 L 7.53125 -5.796875 C 7.664062 -6.398438 7.691406 -6.84375 7.609375 -7.125 C 7.460938 -7.539062 7.082031 -7.75 6.46875 -7.75 C 5.90625 -7.75 5.34375 -7.53125 4.78125 -7.09375 C 4.226562 -6.65625 3.832031 -5.863281 3.59375 -4.71875 L 2.59375 0 L 1.09375 0 Z M 2.984375 -8.890625 "/>
</symbol>
<symbol overflow="visible" id="glyph3-10">
<path style="stroke:none;" d="M 8.234375 -4.5 C 8.378906 -5.207031 8.40625 -5.816406 8.3125 -6.328125 C 8.132812 -7.304688 7.53125 -7.796875 6.5 -7.796875 C 5.46875 -7.796875 4.648438 -7.28125 4.046875 -6.25 C 3.722656 -5.6875 3.46875 -4.984375 3.28125 -4.140625 C 3.144531 -3.453125 3.128906 -2.863281 3.234375 -2.375 C 3.421875 -1.457031 4.03125 -1 5.0625 -1 C 5.75 -1 6.382812 -1.289062 6.96875 -1.875 C 7.5625 -2.457031 7.984375 -3.332031 8.234375 -4.5 Z M 2.859375 -8.84375 L 4.3125 -8.84375 L 4.0625 -7.671875 C 4.4375 -8.078125 4.828125 -8.390625 5.234375 -8.609375 C 5.804688 -8.941406 6.4375 -9.109375 7.125 -9.109375 C 8.132812 -9.109375 8.90625 -8.722656 9.4375 -7.953125 C 9.976562 -7.179688 10.09375 -6.078125 9.78125 -4.640625 C 9.375 -2.703125 8.578125 -1.316406 7.390625 -0.484375 C 6.640625 0.0351562 5.835938 0.296875 4.984375 0.296875 C 4.304688 0.296875 3.773438 0.148438 3.390625 -0.140625 C 3.148438 -0.304688 2.914062 -0.59375 2.6875 -1 L 1.71875 3.546875 L 0.21875 3.546875 Z M 2.859375 -8.84375 "/>
</symbol>
<symbol overflow="visible" id="glyph3-11">
<path style="stroke:none;" d="M 4.453125 -1.734375 L 6.109375 -1.734375 L 5.75 0 L 4.09375 0 Z M 7.71875 -12.359375 C 8.800781 -12.359375 9.601562 -12.046875 10.125 -11.421875 C 10.65625 -10.796875 10.816406 -10 10.609375 -9.03125 C 10.484375 -8.445312 10.257812 -7.972656 9.9375 -7.609375 C 9.625 -7.242188 9.023438 -6.707031 8.140625 -6 C 7.503906 -5.476562 7.066406 -5.039062 6.828125 -4.6875 C 6.597656 -4.332031 6.410156 -3.804688 6.265625 -3.109375 L 4.78125 -3.109375 C 4.945312 -3.898438 5.175781 -4.535156 5.46875 -5.015625 C 5.757812 -5.503906 6.289062 -6.0625 7.0625 -6.6875 L 7.859375 -7.34375 C 8.097656 -7.53125 8.300781 -7.722656 8.46875 -7.921875 C 8.769531 -8.285156 8.960938 -8.660156 9.046875 -9.046875 C 9.160156 -9.585938 9.097656 -10.054688 8.859375 -10.453125 C 8.617188 -10.859375 8.125 -11.0625 7.375 -11.0625 C 6.457031 -11.0625 5.742188 -10.71875 5.234375 -10.03125 C 4.960938 -9.644531 4.734375 -9.09375 4.546875 -8.375 L 3.078125 -8.375 C 3.328125 -9.570312 3.863281 -10.535156 4.6875 -11.265625 C 5.519531 -11.992188 6.53125 -12.359375 7.71875 -12.359375 Z M 7.71875 -12.359375 "/>
</symbol>
<symbol overflow="visible" id="glyph4-0">
<path style="stroke:none;" d="M 0.359375 0 L 0.359375 -7.890625 L 6.625 -7.890625 L 6.625 0 Z M 5.625 -0.984375 L 5.625 -6.90625 L 1.34375 -6.90625 L 1.34375 -0.984375 Z M 5.625 -0.984375 "/>
</symbol>
<symbol overflow="visible" id="glyph4-1">
<path style="stroke:none;" d="M 0.84375 -7.890625 L 2.09375 -7.890625 L 6.078125 -1.5 L 6.078125 -7.890625 L 7.09375 -7.890625 L 7.09375 0 L 5.90625 0 L 1.859375 -6.390625 L 1.859375 0 L 0.84375 0 Z M 3.90625 -7.890625 Z M 3.90625 -7.890625 "/>
</symbol>
<symbol overflow="visible" id="glyph4-2">
<path style="stroke:none;" d="M 2.984375 -0.625 C 3.628906 -0.625 4.070312 -0.863281 4.3125 -1.34375 C 4.550781 -1.832031 4.671875 -2.375 4.671875 -2.96875 C 4.671875 -3.507812 4.582031 -3.945312 4.40625 -4.28125 C 4.132812 -4.8125 3.664062 -5.078125 3 -5.078125 C 2.40625 -5.078125 1.972656 -4.847656 1.703125 -4.390625 C 1.441406 -3.941406 1.3125 -3.398438 1.3125 -2.765625 C 1.3125 -2.148438 1.441406 -1.640625 1.703125 -1.234375 C 1.972656 -0.828125 2.398438 -0.625 2.984375 -0.625 Z M 3.03125 -5.921875 C 3.769531 -5.921875 4.394531 -5.671875 4.90625 -5.171875 C 5.414062 -4.679688 5.671875 -3.957031 5.671875 -3 C 5.671875 -2.070312 5.445312 -1.304688 5 -0.703125 C 4.550781 -0.0976562 3.851562 0.203125 2.90625 0.203125 C 2.113281 0.203125 1.484375 -0.0625 1.015625 -0.59375 C 0.546875 -1.125 0.3125 -1.84375 0.3125 -2.75 C 0.3125 -3.71875 0.554688 -4.488281 1.046875 -5.0625 C 1.535156 -5.632812 2.195312 -5.921875 3.03125 -5.921875 Z M 3 -5.890625 Z M 3 -5.890625 "/>
</symbol>
<symbol overflow="visible" id="glyph4-3">
<path style="stroke:none;" d="M 0.90625 -7.359375 L 1.875 -7.359375 L 1.875 -5.75 L 2.796875 -5.75 L 2.796875 -4.96875 L 1.875 -4.96875 L 1.875 -1.203125 C 1.875 -1.003906 1.941406 -0.875 2.078125 -0.8125 C 2.160156 -0.769531 2.285156 -0.75 2.453125 -0.75 C 2.503906 -0.75 2.554688 -0.75 2.609375 -0.75 C 2.660156 -0.75 2.722656 -0.753906 2.796875 -0.765625 L 2.796875 0 C 2.679688 0.03125 2.5625 0.0507812 2.4375 0.0625 C 2.320312 0.0820312 2.195312 0.09375 2.0625 0.09375 C 1.613281 0.09375 1.304688 -0.0195312 1.140625 -0.25 C 0.984375 -0.488281 0.90625 -0.789062 0.90625 -1.15625 L 0.90625 -4.96875 L 0.125 -4.96875 L 0.125 -5.75 L 0.90625 -5.75 Z M 0.90625 -7.359375 "/>
</symbol>
<symbol overflow="visible" id="glyph4-4">
<path style="stroke:none;" d="M 1.453125 -1.53125 C 1.453125 -1.25 1.550781 -1.023438 1.75 -0.859375 C 1.957031 -0.703125 2.203125 -0.625 2.484375 -0.625 C 2.816406 -0.625 3.144531 -0.703125 3.46875 -0.859375 C 4.007812 -1.117188 4.28125 -1.550781 4.28125 -2.15625 L 4.28125 -2.921875 C 4.15625 -2.847656 4 -2.785156 3.8125 -2.734375 C 3.632812 -2.691406 3.453125 -2.65625 3.265625 -2.625 L 2.6875 -2.5625 C 2.332031 -2.507812 2.066406 -2.4375 1.890625 -2.34375 C 1.597656 -2.164062 1.453125 -1.894531 1.453125 -1.53125 Z M 3.796875 -3.484375 C 4.015625 -3.515625 4.160156 -3.609375 4.234375 -3.765625 C 4.273438 -3.847656 4.296875 -3.972656 4.296875 -4.140625 C 4.296875 -4.460938 4.175781 -4.695312 3.9375 -4.84375 C 3.707031 -5 3.375 -5.078125 2.9375 -5.078125 C 2.4375 -5.078125 2.082031 -4.941406 1.875 -4.671875 C 1.75 -4.515625 1.671875 -4.289062 1.640625 -4 L 0.734375 -4 C 0.753906 -4.707031 0.984375 -5.195312 1.421875 -5.46875 C 1.867188 -5.75 2.382812 -5.890625 2.96875 -5.890625 C 3.644531 -5.890625 4.191406 -5.757812 4.609375 -5.5 C 5.035156 -5.25 5.25 -4.847656 5.25 -4.296875 L 5.25 -0.984375 C 5.25 -0.890625 5.265625 -0.8125 5.296875 -0.75 C 5.335938 -0.6875 5.425781 -0.65625 5.5625 -0.65625 C 5.601562 -0.65625 5.648438 -0.65625 5.703125 -0.65625 C 5.765625 -0.664062 5.820312 -0.675781 5.875 -0.6875 L 5.875 0.03125 C 5.726562 0.0703125 5.613281 0.0976562 5.53125 0.109375 C 5.457031 0.117188 5.351562 0.125 5.21875 0.125 C 4.882812 0.125 4.640625 0.00390625 4.484375 -0.234375 C 4.410156 -0.359375 4.359375 -0.535156 4.328125 -0.765625 C 4.128906 -0.503906 3.84375 -0.28125 3.46875 -0.09375 C 3.101562 0.09375 2.695312 0.1875 2.25 0.1875 C 1.71875 0.1875 1.28125 0.0234375 0.9375 -0.296875 C 0.601562 -0.617188 0.4375 -1.023438 0.4375 -1.515625 C 0.4375 -2.046875 0.601562 -2.457031 0.9375 -2.75 C 1.269531 -3.039062 1.707031 -3.222656 2.25 -3.296875 Z M 2.984375 -5.890625 Z M 2.984375 -5.890625 "/>
</symbol>
<symbol overflow="visible" id="glyph4-5">
<path style="stroke:none;" d=""/>
</symbol>
<symbol overflow="visible" id="glyph4-6">
<path style="stroke:none;" d="M 1.328125 -2.8125 C 1.328125 -2.195312 1.457031 -1.679688 1.71875 -1.265625 C 1.976562 -0.847656 2.394531 -0.640625 2.96875 -0.640625 C 3.414062 -0.640625 3.78125 -0.832031 4.0625 -1.21875 C 4.351562 -1.601562 4.5 -2.15625 4.5 -2.875 C 4.5 -3.601562 4.347656 -4.140625 4.046875 -4.484375 C 3.753906 -4.835938 3.390625 -5.015625 2.953125 -5.015625 C 2.472656 -5.015625 2.082031 -4.828125 1.78125 -4.453125 C 1.476562 -4.078125 1.328125 -3.53125 1.328125 -2.8125 Z M 2.78125 -5.859375 C 3.21875 -5.859375 3.585938 -5.765625 3.890625 -5.578125 C 4.054688 -5.472656 4.25 -5.285156 4.46875 -5.015625 L 4.46875 -7.921875 L 5.390625 -7.921875 L 5.390625 0 L 4.53125 0 L 4.53125 -0.796875 C 4.300781 -0.441406 4.03125 -0.1875 3.71875 -0.03125 C 3.414062 0.125 3.066406 0.203125 2.671875 0.203125 C 2.023438 0.203125 1.46875 -0.0625 1 -0.59375 C 0.53125 -1.132812 0.296875 -1.851562 0.296875 -2.75 C 0.296875 -3.59375 0.507812 -4.320312 0.9375 -4.9375 C 1.363281 -5.550781 1.976562 -5.859375 2.78125 -5.859375 Z M 2.78125 -5.859375 "/>
</symbol>
<symbol overflow="visible" id="glyph4-7">
<path style="stroke:none;" d="M 3.109375 -5.875 C 3.515625 -5.875 3.90625 -5.78125 4.28125 -5.59375 C 4.664062 -5.40625 4.960938 -5.15625 5.171875 -4.84375 C 5.359375 -4.5625 5.484375 -4.222656 5.546875 -3.828125 C 5.609375 -3.566406 5.640625 -3.144531 5.640625 -2.5625 L 1.421875 -2.5625 C 1.441406 -1.976562 1.578125 -1.507812 1.828125 -1.15625 C 2.085938 -0.8125 2.488281 -0.640625 3.03125 -0.640625 C 3.539062 -0.640625 3.945312 -0.804688 4.25 -1.140625 C 4.414062 -1.328125 4.535156 -1.550781 4.609375 -1.8125 L 5.5625 -1.8125 C 5.53125 -1.59375 5.441406 -1.351562 5.296875 -1.09375 C 5.160156 -0.832031 5.003906 -0.625 4.828125 -0.46875 C 4.535156 -0.175781 4.175781 0.0195312 3.75 0.125 C 3.507812 0.175781 3.242188 0.203125 2.953125 0.203125 C 2.234375 0.203125 1.625 -0.0546875 1.125 -0.578125 C 0.632812 -1.097656 0.390625 -1.828125 0.390625 -2.765625 C 0.390625 -3.691406 0.640625 -4.441406 1.140625 -5.015625 C 1.640625 -5.585938 2.296875 -5.875 3.109375 -5.875 Z M 4.640625 -3.328125 C 4.609375 -3.753906 4.519531 -4.09375 4.375 -4.34375 C 4.101562 -4.800781 3.660156 -5.03125 3.046875 -5.03125 C 2.597656 -5.03125 2.222656 -4.867188 1.921875 -4.546875 C 1.628906 -4.234375 1.472656 -3.828125 1.453125 -3.328125 Z M 3.015625 -5.890625 Z M 3.015625 -5.890625 "/>
</symbol>
<symbol overflow="visible" id="glyph4-8">
<path style="stroke:none;" d="M 4.15625 -8.109375 C 5.15625 -8.109375 5.929688 -7.84375 6.484375 -7.3125 C 7.035156 -6.789062 7.34375 -6.191406 7.40625 -5.515625 L 6.359375 -5.515625 C 6.242188 -6.023438 6.007812 -6.425781 5.65625 -6.71875 C 5.300781 -7.019531 4.804688 -7.171875 4.171875 -7.171875 C 3.398438 -7.171875 2.773438 -6.894531 2.296875 -6.34375 C 1.816406 -5.800781 1.578125 -4.96875 1.578125 -3.84375 C 1.578125 -2.914062 1.789062 -2.164062 2.21875 -1.59375 C 2.65625 -1.019531 3.300781 -0.734375 4.15625 -0.734375 C 4.9375 -0.734375 5.535156 -1.035156 5.953125 -1.640625 C 6.171875 -1.960938 6.332031 -2.382812 6.4375 -2.90625 L 7.484375 -2.90625 C 7.390625 -2.070312 7.082031 -1.375 6.5625 -0.8125 C 5.9375 -0.132812 5.085938 0.203125 4.015625 0.203125 C 3.097656 0.203125 2.332031 -0.0703125 1.71875 -0.625 C 0.894531 -1.363281 0.484375 -2.5 0.484375 -4.03125 C 0.484375 -5.195312 0.789062 -6.148438 1.40625 -6.890625 C 2.070312 -7.703125 2.988281 -8.109375 4.15625 -8.109375 Z M 3.953125 -8.109375 Z M 3.953125 -8.109375 "/>
</symbol>
<symbol overflow="visible" id="glyph4-9">
<path style="stroke:none;" d="M 0.703125 -5.75 L 1.625 -5.75 L 1.625 -4.9375 C 1.894531 -5.269531 2.179688 -5.507812 2.484375 -5.65625 C 2.796875 -5.800781 3.132812 -5.875 3.5 -5.875 C 4.320312 -5.875 4.875 -5.59375 5.15625 -5.03125 C 5.3125 -4.71875 5.390625 -4.269531 5.390625 -3.6875 L 5.390625 0 L 4.421875 0 L 4.421875 -3.625 C 4.421875 -3.976562 4.367188 -4.257812 4.265625 -4.46875 C 4.085938 -4.832031 3.773438 -5.015625 3.328125 -5.015625 C 3.097656 -5.015625 2.910156 -4.988281 2.765625 -4.9375 C 2.492188 -4.863281 2.257812 -4.707031 2.0625 -4.46875 C 1.90625 -4.28125 1.800781 -4.082031 1.75 -3.875 C 1.695312 -3.675781 1.671875 -3.390625 1.671875 -3.015625 L 1.671875 0 L 0.703125 0 Z M 2.984375 -5.890625 Z M 2.984375 -5.890625 "/>
</symbol>
<symbol overflow="visible" id="glyph4-10">
<path style="stroke:none;" d="M 0.734375 -5.75 L 1.65625 -5.75 L 1.65625 -4.765625 C 1.726562 -4.953125 1.910156 -5.179688 2.203125 -5.453125 C 2.492188 -5.734375 2.832031 -5.875 3.21875 -5.875 C 3.238281 -5.875 3.269531 -5.875 3.3125 -5.875 C 3.351562 -5.875 3.425781 -5.867188 3.53125 -5.859375 L 3.53125 -4.828125 C 3.476562 -4.835938 3.425781 -4.84375 3.375 -4.84375 C 3.320312 -4.851562 3.269531 -4.859375 3.21875 -4.859375 C 2.726562 -4.859375 2.351562 -4.703125 2.09375 -4.390625 C 1.832031 -4.078125 1.703125 -3.71875 1.703125 -3.3125 L 1.703125 0 L 0.734375 0 Z M 0.734375 -5.75 "/>
</symbol>
<symbol overflow="visible" id="glyph4-11">
<path style="stroke:none;" d="M 0.734375 -7.890625 L 1.703125 -7.890625 L 1.703125 0 L 0.734375 0 Z M 0.734375 -7.890625 "/>
</symbol>
<symbol overflow="visible" id="glyph4-12">
<path style="stroke:none;" d="M 2.96875 -7.6875 C 3.96875 -7.6875 4.691406 -7.28125 5.140625 -6.46875 C 5.484375 -5.832031 5.65625 -4.960938 5.65625 -3.859375 C 5.65625 -2.804688 5.5 -1.941406 5.1875 -1.265625 C 4.726562 -0.285156 3.988281 0.203125 2.96875 0.203125 C 2.039062 0.203125 1.351562 -0.195312 0.90625 -1 C 0.53125 -1.664062 0.34375 -2.5625 0.34375 -3.6875 C 0.34375 -4.5625 0.457031 -5.3125 0.6875 -5.9375 C 1.101562 -7.101562 1.863281 -7.6875 2.96875 -7.6875 Z M 2.96875 -0.671875 C 3.46875 -0.671875 3.863281 -0.890625 4.15625 -1.328125 C 4.457031 -1.773438 4.609375 -2.601562 4.609375 -3.8125 C 4.609375 -4.6875 4.5 -5.40625 4.28125 -5.96875 C 4.070312 -6.539062 3.65625 -6.828125 3.03125 -6.828125 C 2.46875 -6.828125 2.050781 -6.554688 1.78125 -6.015625 C 1.519531 -5.484375 1.390625 -4.695312 1.390625 -3.65625 C 1.390625 -2.863281 1.472656 -2.234375 1.640625 -1.765625 C 1.898438 -1.035156 2.34375 -0.671875 2.96875 -0.671875 Z M 2.96875 -0.671875 "/>
</symbol>
<symbol overflow="visible" id="glyph4-13">
<path style="stroke:none;" d="M 2.984375 -4.46875 C 3.410156 -4.46875 3.742188 -4.585938 3.984375 -4.828125 C 4.222656 -5.066406 4.34375 -5.347656 4.34375 -5.671875 C 4.34375 -5.960938 4.226562 -6.226562 4 -6.46875 C 3.769531 -6.707031 3.421875 -6.828125 2.953125 -6.828125 C 2.492188 -6.828125 2.160156 -6.707031 1.953125 -6.46875 C 1.742188 -6.226562 1.640625 -5.945312 1.640625 -5.625 C 1.640625 -5.257812 1.769531 -4.972656 2.03125 -4.765625 C 2.300781 -4.566406 2.617188 -4.46875 2.984375 -4.46875 Z M 3.046875 -0.65625 C 3.492188 -0.65625 3.863281 -0.773438 4.15625 -1.015625 C 4.457031 -1.265625 4.609375 -1.628906 4.609375 -2.109375 C 4.609375 -2.609375 4.457031 -2.984375 4.15625 -3.234375 C 3.851562 -3.492188 3.460938 -3.625 2.984375 -3.625 C 2.515625 -3.625 2.132812 -3.492188 1.84375 -3.234375 C 1.550781 -2.972656 1.40625 -2.609375 1.40625 -2.140625 C 1.40625 -1.734375 1.539062 -1.382812 1.8125 -1.09375 C 2.082031 -0.800781 2.492188 -0.65625 3.046875 -0.65625 Z M 1.671875 -4.09375 C 1.398438 -4.207031 1.191406 -4.34375 1.046875 -4.5 C 0.765625 -4.789062 0.625 -5.164062 0.625 -5.625 C 0.625 -6.195312 0.832031 -6.6875 1.25 -7.09375 C 1.664062 -7.507812 2.253906 -7.71875 3.015625 -7.71875 C 3.753906 -7.71875 4.332031 -7.519531 4.75 -7.125 C 5.164062 -6.738281 5.375 -6.285156 5.375 -5.765625 C 5.375 -5.285156 5.253906 -4.898438 5.015625 -4.609375 C 4.878906 -4.429688 4.664062 -4.265625 4.375 -4.109375 C 4.695312 -3.960938 4.945312 -3.796875 5.125 -3.609375 C 5.46875 -3.242188 5.640625 -2.773438 5.640625 -2.203125 C 5.640625 -1.523438 5.410156 -0.953125 4.953125 -0.484375 C 4.503906 -0.015625 3.863281 0.21875 3.03125 0.21875 C 2.28125 0.21875 1.644531 0.015625 1.125 -0.390625 C 0.613281 -0.796875 0.359375 -1.382812 0.359375 -2.15625 C 0.359375 -2.613281 0.46875 -3.003906 0.6875 -3.328125 C 0.90625 -3.660156 1.234375 -3.914062 1.671875 -4.09375 Z M 1.671875 -4.09375 "/>
</symbol>
<symbol overflow="visible" id="glyph5-0">
<path style="stroke:none;" d="M 1.53125 -14.6875 L 13.359375 -14.6875 L 13.359375 0 L 1.53125 0 Z M 11.53125 -1.828125 L 11.53125 -12.859375 L 3.375 -12.859375 L 3.375 -1.828125 Z M 11.53125 -1.828125 "/>
</symbol>
<symbol overflow="visible" id="glyph5-1">
<path style="stroke:none;" d="M 7.796875 -5.28125 L 4.671875 -5.28125 L 4.671875 0 L 1.625 0 L 1.625 -14.6875 L 8.015625 -14.6875 C 9.492188 -14.6875 10.671875 -14.304688 11.546875 -13.546875 C 12.421875 -12.796875 12.859375 -11.625 12.859375 -10.03125 C 12.859375 -8.300781 12.421875 -7.078125 11.546875 -6.359375 C 10.671875 -5.640625 9.421875 -5.28125 7.796875 -5.28125 Z M 9.234375 -8.34375 C 9.628906 -8.695312 9.828125 -9.253906 9.828125 -10.015625 C 9.828125 -10.773438 9.625 -11.316406 9.21875 -11.640625 C 8.820312 -11.972656 8.257812 -12.140625 7.53125 -12.140625 L 4.671875 -12.140625 L 4.671875 -7.8125 L 7.53125 -7.8125 C 8.257812 -7.8125 8.828125 -7.988281 9.234375 -8.34375 Z M 9.234375 -8.34375 "/>
</symbol>
<symbol overflow="visible" id="glyph5-2">
<path style="stroke:none;" d="M 1.734375 -9.6875 C 2.484375 -10.644531 3.769531 -11.125 5.59375 -11.125 C 6.789062 -11.125 7.847656 -10.882812 8.765625 -10.40625 C 9.691406 -9.9375 10.15625 -9.046875 10.15625 -7.734375 L 10.15625 -2.765625 C 10.15625 -2.410156 10.160156 -1.988281 10.171875 -1.5 C 10.191406 -1.132812 10.25 -0.882812 10.34375 -0.75 C 10.4375 -0.613281 10.578125 -0.503906 10.765625 -0.421875 L 10.765625 0 L 7.671875 0 C 7.585938 -0.21875 7.523438 -0.421875 7.484375 -0.609375 C 7.453125 -0.804688 7.425781 -1.03125 7.40625 -1.28125 C 7.019531 -0.851562 6.570312 -0.488281 6.0625 -0.1875 C 5.445312 0.164062 4.753906 0.34375 3.984375 0.34375 C 3.003906 0.34375 2.191406 0.0625 1.546875 -0.5 C 0.910156 -1.0625 0.59375 -1.859375 0.59375 -2.890625 C 0.59375 -4.222656 1.101562 -5.191406 2.125 -5.796875 C 2.695312 -6.117188 3.53125 -6.347656 4.625 -6.484375 L 5.59375 -6.609375 C 6.113281 -6.671875 6.488281 -6.753906 6.71875 -6.859375 C 7.125 -7.023438 7.328125 -7.289062 7.328125 -7.65625 C 7.328125 -8.101562 7.171875 -8.410156 6.859375 -8.578125 C 6.546875 -8.753906 6.09375 -8.84375 5.5 -8.84375 C 4.832031 -8.84375 4.359375 -8.675781 4.078125 -8.34375 C 3.878906 -8.09375 3.742188 -7.757812 3.671875 -7.34375 L 0.9375 -7.34375 C 1 -8.289062 1.265625 -9.070312 1.734375 -9.6875 Z M 3.84375 -2.046875 C 4.113281 -1.828125 4.441406 -1.71875 4.828125 -1.71875 C 5.429688 -1.71875 5.988281 -1.894531 6.5 -2.25 C 7.019531 -2.613281 7.289062 -3.269531 7.3125 -4.21875 L 7.3125 -5.28125 C 7.132812 -5.164062 6.953125 -5.070312 6.765625 -5 C 6.585938 -4.9375 6.335938 -4.875 6.015625 -4.8125 L 5.375 -4.6875 C 4.78125 -4.582031 4.351562 -4.453125 4.09375 -4.296875 C 3.65625 -4.046875 3.4375 -3.644531 3.4375 -3.09375 C 3.4375 -2.613281 3.570312 -2.265625 3.84375 -2.046875 Z M 3.84375 -2.046875 "/>
</symbol>
<symbol overflow="visible" id="glyph5-3">
<path style="stroke:none;" d="M 6.78125 -8.234375 C 5.644531 -8.234375 4.878906 -7.863281 4.484375 -7.125 C 4.265625 -6.707031 4.15625 -6.0625 4.15625 -5.1875 L 4.15625 0 L 1.296875 0 L 1.296875 -10.859375 L 4 -10.859375 L 4 -8.96875 C 4.4375 -9.6875 4.820312 -10.179688 5.15625 -10.453125 C 5.6875 -10.898438 6.375 -11.125 7.21875 -11.125 C 7.269531 -11.125 7.3125 -11.117188 7.34375 -11.109375 C 7.382812 -11.109375 7.472656 -11.101562 7.609375 -11.09375 L 7.609375 -8.1875 C 7.421875 -8.207031 7.257812 -8.21875 7.125 -8.21875 C 6.988281 -8.226562 6.875 -8.234375 6.78125 -8.234375 Z M 6.78125 -8.234375 "/>
</symbol>
<symbol overflow="visible" id="glyph5-4">
<path style="stroke:none;" d="M 6.296875 -2.015625 L 6.296875 0.09375 L 4.953125 0.15625 C 3.609375 0.195312 2.691406 -0.0351562 2.203125 -0.546875 C 1.878906 -0.867188 1.71875 -1.367188 1.71875 -2.046875 L 1.71875 -8.734375 L 0.203125 -8.734375 L 0.203125 -10.765625 L 1.71875 -10.765625 L 1.71875 -13.796875 L 4.53125 -13.796875 L 4.53125 -10.765625 L 6.296875 -10.765625 L 6.296875 -8.734375 L 4.53125 -8.734375 L 4.53125 -3 C 4.53125 -2.550781 4.585938 -2.269531 4.703125 -2.15625 C 4.816406 -2.050781 5.160156 -2 5.734375 -2 C 5.828125 -2 5.921875 -2 6.015625 -2 C 6.109375 -2.007812 6.203125 -2.015625 6.296875 -2.015625 Z M 6.296875 -2.015625 "/>
</symbol>
<symbol overflow="visible" id="glyph5-5">
<path style="stroke:none;" d="M 4.25 -10.859375 L 4.25 0 L 1.359375 0 L 1.359375 -10.859375 Z M 4.25 -14.78125 L 4.25 -12.15625 L 1.359375 -12.15625 L 1.359375 -14.78125 Z M 4.25 -14.78125 "/>
</symbol>
<symbol overflow="visible" id="glyph5-6">
<path style="stroke:none;" d="M 10.71875 -6.96875 L 7.8125 -6.96875 C 7.757812 -7.375 7.625 -7.738281 7.40625 -8.0625 C 7.082031 -8.5 6.585938 -8.71875 5.921875 -8.71875 C 4.960938 -8.71875 4.304688 -8.242188 3.953125 -7.296875 C 3.765625 -6.785156 3.671875 -6.113281 3.671875 -5.28125 C 3.671875 -4.476562 3.765625 -3.835938 3.953125 -3.359375 C 4.296875 -2.453125 4.9375 -2 5.875 -2 C 6.53125 -2 7 -2.175781 7.28125 -2.53125 C 7.5625 -2.894531 7.734375 -3.363281 7.796875 -3.9375 L 10.6875 -3.9375 C 10.625 -3.070312 10.3125 -2.253906 9.75 -1.484375 C 8.863281 -0.242188 7.546875 0.375 5.796875 0.375 C 4.046875 0.375 2.757812 -0.140625 1.9375 -1.171875 C 1.113281 -2.210938 0.703125 -3.5625 0.703125 -5.21875 C 0.703125 -7.082031 1.15625 -8.53125 2.0625 -9.5625 C 2.976562 -10.601562 4.238281 -11.125 5.84375 -11.125 C 7.195312 -11.125 8.304688 -10.816406 9.171875 -10.203125 C 10.046875 -9.585938 10.5625 -8.507812 10.71875 -6.96875 Z M 10.71875 -6.96875 "/>
</symbol>
<symbol overflow="visible" id="glyph5-7">
<path style="stroke:none;" d="M 10.421875 -9.6875 C 11.296875 -8.757812 11.734375 -7.382812 11.734375 -5.5625 C 11.734375 -3.65625 11.300781 -2.195312 10.4375 -1.1875 C 9.582031 -0.1875 8.476562 0.3125 7.125 0.3125 C 6.257812 0.3125 5.539062 0.09375 4.96875 -0.34375 C 4.65625 -0.582031 4.351562 -0.929688 4.0625 -1.390625 L 4.0625 4.28125 L 1.25 4.28125 L 1.25 -10.859375 L 3.96875 -10.859375 L 3.96875 -9.25 C 4.269531 -9.726562 4.59375 -10.101562 4.9375 -10.375 C 5.570312 -10.851562 6.320312 -11.09375 7.1875 -11.09375 C 8.457031 -11.09375 9.535156 -10.625 10.421875 -9.6875 Z M 8.8125 -5.4375 C 8.8125 -6.269531 8.617188 -7.007812 8.234375 -7.65625 C 7.847656 -8.300781 7.226562 -8.625 6.375 -8.625 C 5.34375 -8.625 4.632812 -8.132812 4.25 -7.15625 C 4.050781 -6.632812 3.953125 -5.976562 3.953125 -5.1875 C 3.953125 -3.914062 4.289062 -3.023438 4.96875 -2.515625 C 5.363281 -2.222656 5.832031 -2.078125 6.375 -2.078125 C 7.164062 -2.078125 7.769531 -2.378906 8.1875 -2.984375 C 8.601562 -3.597656 8.8125 -4.414062 8.8125 -5.4375 Z M 8.8125 -5.4375 "/>
</symbol>
<symbol overflow="visible" id="glyph5-8">
<path style="stroke:none;" d="M 10.375 -9.484375 C 11.289062 -8.335938 11.75 -6.976562 11.75 -5.40625 C 11.75 -3.8125 11.289062 -2.445312 10.375 -1.3125 C 9.457031 -0.1875 8.066406 0.375 6.203125 0.375 C 4.335938 0.375 2.945312 -0.1875 2.03125 -1.3125 C 1.113281 -2.445312 0.65625 -3.8125 0.65625 -5.40625 C 0.65625 -6.976562 1.113281 -8.335938 2.03125 -9.484375 C 2.945312 -10.628906 4.335938 -11.203125 6.203125 -11.203125 C 8.066406 -11.203125 9.457031 -10.628906 10.375 -9.484375 Z M 6.203125 -8.8125 C 5.367188 -8.8125 4.726562 -8.515625 4.28125 -7.921875 C 3.832031 -7.335938 3.609375 -6.5 3.609375 -5.40625 C 3.609375 -4.320312 3.832031 -3.484375 4.28125 -2.890625 C 4.726562 -2.296875 5.367188 -2 6.203125 -2 C 7.023438 -2 7.660156 -2.296875 8.109375 -2.890625 C 8.554688 -3.484375 8.78125 -4.320312 8.78125 -5.40625 C 8.78125 -6.5 8.554688 -7.335938 8.109375 -7.921875 C 7.660156 -8.515625 7.023438 -8.8125 6.203125 -8.8125 Z M 4.515625 -12.328125 L 6.4375 -15.3125 L 9.59375 -15.3125 L 6.578125 -12.328125 Z M 4.515625 -12.328125 "/>
</symbol>
<symbol overflow="visible" id="glyph5-9">
<path style="stroke:none;" d="M 6.4375 -8.765625 C 5.46875 -8.765625 4.804688 -8.351562 4.453125 -7.53125 C 4.265625 -7.101562 4.171875 -6.550781 4.171875 -5.875 L 4.171875 0 L 1.34375 0 L 1.34375 -10.84375 L 4.078125 -10.84375 L 4.078125 -9.25 C 4.453125 -9.8125 4.800781 -10.21875 5.125 -10.46875 C 5.707031 -10.90625 6.445312 -11.125 7.34375 -11.125 C 8.46875 -11.125 9.382812 -10.828125 10.09375 -10.234375 C 10.8125 -9.648438 11.171875 -8.675781 11.171875 -7.3125 L 11.171875 0 L 8.265625 0 L 8.265625 -6.609375 C 8.265625 -7.179688 8.1875 -7.617188 8.03125 -7.921875 C 7.75 -8.484375 7.21875 -8.765625 6.4375 -8.765625 Z M 6.4375 -8.765625 "/>
</symbol>
<symbol overflow="visible" id="glyph5-10">
<path style="stroke:none;" d=""/>
</symbol>
<symbol overflow="visible" id="glyph5-11">
<path style="stroke:none;" d="M 11.921875 -1.09375 C 10.816406 -0.09375 9.414062 0.40625 7.71875 0.40625 C 5.601562 0.40625 3.941406 -0.269531 2.734375 -1.625 C 1.523438 -2.988281 0.921875 -4.851562 0.921875 -7.21875 C 0.921875 -9.78125 1.609375 -11.757812 2.984375 -13.15625 C 4.171875 -14.363281 5.691406 -14.96875 7.546875 -14.96875 C 10.015625 -14.96875 11.820312 -14.15625 12.96875 -12.53125 C 13.59375 -11.625 13.929688 -10.710938 13.984375 -9.796875 L 10.90625 -9.796875 C 10.707031 -10.492188 10.453125 -11.023438 10.140625 -11.390625 C 9.585938 -12.023438 8.757812 -12.34375 7.65625 -12.34375 C 6.539062 -12.34375 5.660156 -11.890625 5.015625 -10.984375 C 4.378906 -10.085938 4.0625 -8.816406 4.0625 -7.171875 C 4.0625 -5.523438 4.398438 -4.289062 5.078125 -3.46875 C 5.753906 -2.644531 6.617188 -2.234375 7.671875 -2.234375 C 8.742188 -2.234375 9.566406 -2.585938 10.140625 -3.296875 C 10.453125 -3.671875 10.707031 -4.238281 10.90625 -5 L 13.953125 -5 C 13.679688 -3.394531 13.003906 -2.09375 11.921875 -1.09375 Z M 11.921875 -1.09375 "/>
</symbol>
<symbol overflow="visible" id="glyph5-12">
<path style="stroke:none;" d="M 10.375 -9.484375 C 11.289062 -8.335938 11.75 -6.976562 11.75 -5.40625 C 11.75 -3.8125 11.289062 -2.445312 10.375 -1.3125 C 9.457031 -0.1875 8.066406 0.375 6.203125 0.375 C 4.335938 0.375 2.945312 -0.1875 2.03125 -1.3125 C 1.113281 -2.445312 0.65625 -3.8125 0.65625 -5.40625 C 0.65625 -6.976562 1.113281 -8.335938 2.03125 -9.484375 C 2.945312 -10.628906 4.335938 -11.203125 6.203125 -11.203125 C 8.066406 -11.203125 9.457031 -10.628906 10.375 -9.484375 Z M 6.203125 -8.8125 C 5.367188 -8.8125 4.726562 -8.515625 4.28125 -7.921875 C 3.832031 -7.335938 3.609375 -6.5 3.609375 -5.40625 C 3.609375 -4.320312 3.832031 -3.484375 4.28125 -2.890625 C 4.726562 -2.296875 5.367188 -2 6.203125 -2 C 7.023438 -2 7.660156 -2.296875 8.109375 -2.890625 C 8.554688 -3.484375 8.78125 -4.320312 8.78125 -5.40625 C 8.78125 -6.5 8.554688 -7.335938 8.109375 -7.921875 C 7.660156 -8.515625 7.023438 -8.8125 6.203125 -8.8125 Z M 6.203125 -8.8125 "/>
</symbol>
<symbol overflow="visible" id="glyph5-13">
<path style="stroke:none;" d="M 1.390625 -14.6875 L 4.21875 -14.6875 L 4.21875 0 L 1.390625 0 Z M 1.390625 -14.6875 "/>
</symbol>
</g>
<clipPath id="clip1">
  <path d="M 48.671875 43.398438 L 646.5625 43.398438 L 646.5625 280.691406 L 48.671875 280.691406 Z M 48.671875 43.398438 "/>
</clipPath>
<clipPath id="clip2">
  <path d="M 48.671875 242 L 646.5625 242 L 646.5625 244 L 48.671875 244 Z M 48.671875 242 "/>
</clipPath>
<clipPath id="clip3">
  <path d="M 48.671875 188 L 646.5625 188 L 646.5625 190 L 48.671875 190 Z M 48.671875 188 "/>
</clipPath>
<clipPath id="clip4">
  <path d="M 48.671875 134 L 646.5625 134 L 646.5625 136 L 48.671875 136 Z M 48.671875 134 "/>
</clipPath>
<clipPath id="clip5">
  <path d="M 48.671875 81 L 646.5625 81 L 646.5625 82 L 48.671875 82 Z M 48.671875 81 "/>
</clipPath>
<clipPath id="clip6">
  <path d="M 48.671875 269 L 646.5625 269 L 646.5625 271 L 48.671875 271 Z M 48.671875 269 "/>
</clipPath>
<clipPath id="clip7">
  <path d="M 48.671875 215 L 646.5625 215 L 646.5625 217 L 48.671875 217 Z M 48.671875 215 "/>
</clipPath>
<clipPath id="clip8">
  <path d="M 48.671875 161 L 646.5625 161 L 646.5625 163 L 48.671875 163 Z M 48.671875 161 "/>
</clipPath>
<clipPath id="clip9">
  <path d="M 48.671875 107 L 646.5625 107 L 646.5625 109 L 48.671875 109 Z M 48.671875 107 "/>
</clipPath>
<clipPath id="clip10">
  <path d="M 48.671875 53 L 646.5625 53 L 646.5625 55 L 48.671875 55 Z M 48.671875 53 "/>
</clipPath>
<clipPath id="clip11">
  <path d="M 117 43.398438 L 118 43.398438 L 118 280.691406 L 117 280.691406 Z M 117 43.398438 "/>
</clipPath>
<clipPath id="clip12">
  <path d="M 232 43.398438 L 233 43.398438 L 233 280.691406 L 232 280.691406 Z M 232 43.398438 "/>
</clipPath>
<clipPath id="clip13">
  <path d="M 347 43.398438 L 348 43.398438 L 348 280.691406 L 347 280.691406 Z M 347 43.398438 "/>
</clipPath>
<clipPath id="clip14">
  <path d="M 462 43.398438 L 463 43.398438 L 463 280.691406 L 462 280.691406 Z M 462 43.398438 "/>
</clipPath>
<clipPath id="clip15">
  <path d="M 577 43.398438 L 578 43.398438 L 578 280.691406 L 577 280.691406 Z M 577 43.398438 "/>
</clipPath>
<clipPath id="clip16">
  <path d="M 48.671875 269 L 646.5625 269 L 646.5625 271 L 48.671875 271 Z M 48.671875 269 "/>
</clipPath>
<clipPath id="clip17">
  <path d="M 48.671875 43.398438 L 646.5625 43.398438 L 646.5625 280.691406 L 48.671875 280.691406 Z M 48.671875 43.398438 "/>
</clipPath>
</defs>
<g id="surface4">
<rect x="0" y="0" width="648" height="360" style="fill:rgb(100%,100%,100%);fill-opacity:1;stroke:none;"/>
<rect x="0" y="0" width="648" height="360" style="fill:rgb(100%,100%,100%);fill-opacity:1;stroke:none;"/>
<g clip-path="url(#clip1)" clip-rule="nonzero">
<path style="fill:none;stroke-width:1.066978;stroke-linecap:round;stroke-linejoin:round;stroke:rgb(100%,100%,100%);stroke-opacity:1;stroke-miterlimit:10;" d="M 48.671875 280.691406 L 646.5625 280.691406 L 646.5625 43.398438 L 48.671875 43.398438 Z M 48.671875 280.691406 "/>
</g>
<g clip-path="url(#clip2)" clip-rule="nonzero">
<path style="fill:none;stroke-width:0.213396;stroke-linecap:butt;stroke-linejoin:round;stroke:rgb(74.509804%,74.509804%,74.509804%);stroke-opacity:1;stroke-dasharray:3,3;stroke-miterlimit:10;" d="M 48.671875 242.941406 L 646.558594 242.941406 "/>
</g>
<g clip-path="url(#clip3)" clip-rule="nonzero">
<path style="fill:none;stroke-width:0.213396;stroke-linecap:butt;stroke-linejoin:round;stroke:rgb(74.509804%,74.509804%,74.509804%);stroke-opacity:1;stroke-dasharray:3,3;stroke-miterlimit:10;" d="M 48.671875 189.011719 L 646.558594 189.011719 "/>
</g>
<g clip-path="url(#clip4)" clip-rule="nonzero">
<path style="fill:none;stroke-width:0.213396;stroke-linecap:butt;stroke-linejoin:round;stroke:rgb(74.509804%,74.509804%,74.509804%);stroke-opacity:1;stroke-dasharray:3,3;stroke-miterlimit:10;" d="M 48.671875 135.078125 L 646.558594 135.078125 "/>
</g>
<g clip-path="url(#clip5)" clip-rule="nonzero">
<path style="fill:none;stroke-width:0.213396;stroke-linecap:butt;stroke-linejoin:round;stroke:rgb(74.509804%,74.509804%,74.509804%);stroke-opacity:1;stroke-dasharray:3,3;stroke-miterlimit:10;" d="M 48.671875 81.148438 L 646.558594 81.148438 "/>
</g>
<g clip-path="url(#clip6)" clip-rule="nonzero">
<path style="fill:none;stroke-width:0.426791;stroke-linecap:butt;stroke-linejoin:round;stroke:rgb(74.509804%,74.509804%,74.509804%);stroke-opacity:1;stroke-dasharray:3,3;stroke-miterlimit:10;" d="M 48.671875 269.90625 L 646.558594 269.90625 "/>
</g>
<g clip-path="url(#clip7)" clip-rule="nonzero">
<path style="fill:none;stroke-width:0.426791;stroke-linecap:butt;stroke-linejoin:round;stroke:rgb(74.509804%,74.509804%,74.509804%);stroke-opacity:1;stroke-dasharray:3,3;stroke-miterlimit:10;" d="M 48.671875 215.976562 L 646.558594 215.976562 "/>
</g>
<g clip-path="url(#clip8)" clip-rule="nonzero">
<path style="fill:none;stroke-width:0.426791;stroke-linecap:butt;stroke-linejoin:round;stroke:rgb(74.509804%,74.509804%,74.509804%);stroke-opacity:1;stroke-dasharray:3,3;stroke-miterlimit:10;" d="M 48.671875 162.046875 L 646.558594 162.046875 "/>
</g>
<g clip-path="url(#clip9)" clip-rule="nonzero">
<path style="fill:none;stroke-width:0.426791;stroke-linecap:butt;stroke-linejoin:round;stroke:rgb(74.509804%,74.509804%,74.509804%);stroke-opacity:1;stroke-dasharray:3,3;stroke-miterlimit:10;" d="M 48.671875 108.113281 L 646.558594 108.113281 "/>
</g>
<g clip-path="url(#clip10)" clip-rule="nonzero">
<path style="fill:none;stroke-width:0.426791;stroke-linecap:butt;stroke-linejoin:round;stroke:rgb(74.509804%,74.509804%,74.509804%);stroke-opacity:1;stroke-dasharray:3,3;stroke-miterlimit:10;" d="M 48.671875 54.183594 L 646.558594 54.183594 "/>
</g>
<g clip-path="url(#clip11)" clip-rule="nonzero">
<path style="fill:none;stroke-width:0.426791;stroke-linecap:butt;stroke-linejoin:round;stroke:rgb(74.509804%,74.509804%,74.509804%);stroke-opacity:1;stroke-dasharray:3,3;stroke-miterlimit:10;" d="M 117.660156 280.691406 L 117.660156 43.398438 "/>
</g>
<g clip-path="url(#clip12)" clip-rule="nonzero">
<path style="fill:none;stroke-width:0.426791;stroke-linecap:butt;stroke-linejoin:round;stroke:rgb(74.509804%,74.509804%,74.509804%);stroke-opacity:1;stroke-dasharray:3,3;stroke-miterlimit:10;" d="M 232.636719 280.691406 L 232.636719 43.398438 "/>
</g>
<g clip-path="url(#clip13)" clip-rule="nonzero">
<path style="fill:none;stroke-width:0.426791;stroke-linecap:butt;stroke-linejoin:round;stroke:rgb(74.509804%,74.509804%,74.509804%);stroke-opacity:1;stroke-dasharray:3,3;stroke-miterlimit:10;" d="M 347.617188 280.691406 L 347.617188 43.398438 "/>
</g>
<g clip-path="url(#clip14)" clip-rule="nonzero">
<path style="fill:none;stroke-width:0.426791;stroke-linecap:butt;stroke-linejoin:round;stroke:rgb(74.509804%,74.509804%,74.509804%);stroke-opacity:1;stroke-dasharray:3,3;stroke-miterlimit:10;" d="M 462.59375 280.691406 L 462.59375 43.398438 "/>
</g>
<g clip-path="url(#clip15)" clip-rule="nonzero">
<path style="fill:none;stroke-width:0.426791;stroke-linecap:butt;stroke-linejoin:round;stroke:rgb(74.509804%,74.509804%,74.509804%);stroke-opacity:1;stroke-dasharray:3,3;stroke-miterlimit:10;" d="M 577.574219 280.691406 L 577.574219 43.398438 "/>
</g>
<path style=" stroke:none;fill-rule:nonzero;fill:rgb(97.647059%,14.901961%,44.705882%);fill-opacity:1;" d="M 65.917969 269.90625 L 169.398438 269.90625 L 169.398438 54.1875 L 65.917969 54.1875 Z M 65.917969 269.90625 "/>
<path style=" stroke:none;fill-rule:nonzero;fill:rgb(18.431373%,30.980392%,30.980392%);fill-opacity:1;" d="M 180.898438 269.90625 L 284.378906 269.90625 L 284.378906 58.5 L 180.898438 58.5 Z M 180.898438 269.90625 "/>
<path style=" stroke:none;fill-rule:nonzero;fill:rgb(18.431373%,30.980392%,30.980392%);fill-opacity:1;" d="M 295.875 269.90625 L 399.355469 269.90625 L 399.355469 60.65625 L 295.875 60.65625 Z M 295.875 269.90625 "/>
<path style=" stroke:none;fill-rule:nonzero;fill:rgb(18.431373%,30.980392%,30.980392%);fill-opacity:1;" d="M 410.855469 269.90625 L 514.335938 269.90625 L 514.335938 62.816406 L 410.855469 62.816406 Z M 410.855469 269.90625 "/>
<path style=" stroke:none;fill-rule:nonzero;fill:rgb(18.431373%,30.980392%,30.980392%);fill-opacity:1;" d="M 525.832031 269.90625 L 629.3125 269.90625 L 629.3125 64.972656 L 525.832031 64.972656 Z M 525.832031 269.90625 "/>
<g clip-path="url(#clip16)" clip-rule="nonzero">
<path style="fill:none;stroke-width:1.066978;stroke-linecap:butt;stroke-linejoin:round;stroke:rgb(0%,0%,0%);stroke-opacity:1;stroke-miterlimit:10;" d="M 48.671875 269.90625 L 646.558594 269.90625 "/>
</g>
<g clip-path="url(#clip17)" clip-rule="nonzero">
<path style="fill:none;stroke-width:1.066978;stroke-linecap:round;stroke-linejoin:round;stroke:rgb(100%,100%,100%);stroke-opacity:1;stroke-miterlimit:10;" d="M 48.671875 280.691406 L 646.5625 280.691406 L 646.5625 43.398438 L 48.671875 43.398438 Z M 48.671875 280.691406 "/>
</g>
<g style="fill:rgb(0%,0%,0%);fill-opacity:1;">
  <use xlink:href="#glyph0-1" x="35.738281" y="274.37793"/>
</g>
<g style="fill:rgb(0%,0%,0%);fill-opacity:1;">
  <use xlink:href="#glyph0-2" x="27.738281" y="220.448242"/>
  <use xlink:href="#glyph0-3" x="35.738281" y="220.448242"/>
</g>
<g style="fill:rgb(0%,0%,0%);fill-opacity:1;">
  <use xlink:href="#glyph0-3" x="27.738281" y="166.518555"/>
  <use xlink:href="#glyph0-1" x="35.738281" y="166.518555"/>
</g>
<g style="fill:rgb(0%,0%,0%);fill-opacity:1;">
  <use xlink:href="#glyph0-4" x="27.738281" y="112.584961"/>
  <use xlink:href="#glyph0-3" x="35.738281" y="112.584961"/>
</g>
<g style="fill:rgb(0%,0%,0%);fill-opacity:1;">
  <use xlink:href="#glyph0-5" x="19.738281" y="58.655273"/>
  <use xlink:href="#glyph0-1" x="27.738281" y="58.655273"/>
  <use xlink:href="#glyph0-1" x="35.738281" y="58.655273"/>
</g>
<path style="fill:none;stroke-width:0.426791;stroke-linecap:butt;stroke-linejoin:round;stroke:rgb(74.509804%,74.509804%,74.509804%);stroke-opacity:1;stroke-miterlimit:10;" d="M 45.929688 269.90625 L 48.671875 269.90625 "/>
<path style="fill:none;stroke-width:0.426791;stroke-linecap:butt;stroke-linejoin:round;stroke:rgb(74.509804%,74.509804%,74.509804%);stroke-opacity:1;stroke-miterlimit:10;" d="M 45.929688 215.976562 L 48.671875 215.976562 "/>
<path style="fill:none;stroke-width:0.426791;stroke-linecap:butt;stroke-linejoin:round;stroke:rgb(74.509804%,74.509804%,74.509804%);stroke-opacity:1;stroke-miterlimit:10;" d="M 45.929688 162.046875 L 48.671875 162.046875 "/>
<path style="fill:none;stroke-width:0.426791;stroke-linecap:butt;stroke-linejoin:round;stroke:rgb(74.509804%,74.509804%,74.509804%);stroke-opacity:1;stroke-miterlimit:10;" d="M 45.929688 108.113281 L 48.671875 108.113281 "/>
<path style="fill:none;stroke-width:0.426791;stroke-linecap:butt;stroke-linejoin:round;stroke:rgb(74.509804%,74.509804%,74.509804%);stroke-opacity:1;stroke-miterlimit:10;" d="M 45.929688 54.183594 L 48.671875 54.183594 "/>
<path style="fill:none;stroke-width:0.426791;stroke-linecap:butt;stroke-linejoin:round;stroke:rgb(74.509804%,74.509804%,74.509804%);stroke-opacity:1;stroke-miterlimit:10;" d="M 117.660156 283.429688 L 117.660156 280.691406 "/>
<path style="fill:none;stroke-width:0.426791;stroke-linecap:butt;stroke-linejoin:round;stroke:rgb(74.509804%,74.509804%,74.509804%);stroke-opacity:1;stroke-miterlimit:10;" d="M 232.636719 283.429688 L 232.636719 280.691406 "/>
<path style="fill:none;stroke-width:0.426791;stroke-linecap:butt;stroke-linejoin:round;stroke:rgb(74.509804%,74.509804%,74.509804%);stroke-opacity:1;stroke-miterlimit:10;" d="M 347.617188 283.429688 L 347.617188 280.691406 "/>
<path style="fill:none;stroke-width:0.426791;stroke-linecap:butt;stroke-linejoin:round;stroke:rgb(74.509804%,74.509804%,74.509804%);stroke-opacity:1;stroke-miterlimit:10;" d="M 462.59375 283.429688 L 462.59375 280.691406 "/>
<path style="fill:none;stroke-width:0.426791;stroke-linecap:butt;stroke-linejoin:round;stroke:rgb(74.509804%,74.509804%,74.509804%);stroke-opacity:1;stroke-miterlimit:10;" d="M 577.574219 283.429688 L 577.574219 280.691406 "/>
<g style="fill:rgb(0%,0%,0%);fill-opacity:1;">
  <use xlink:href="#glyph0-6" x="82.160156" y="295.092773"/>
  <use xlink:href="#glyph0-7" x="91.160156" y="295.092773"/>
  <use xlink:href="#glyph0-8" x="99.160156" y="295.092773"/>
  <use xlink:href="#glyph0-9" x="107.160156" y="295.092773"/>
  <use xlink:href="#glyph0-10" x="111.160156" y="295.092773"/>
  <use xlink:href="#glyph0-8" x="122.160156" y="295.092773"/>
  <use xlink:href="#glyph0-11" x="130.160156" y="295.092773"/>
  <use xlink:href="#glyph0-12" x="135.160156" y="295.092773"/>
  <use xlink:href="#glyph0-13" x="142.160156" y="295.092773"/>
  <use xlink:href="#glyph0-8" x="145.160156" y="295.092773"/>
</g>
<g style="fill:rgb(0%,0%,0%);fill-opacity:1;">
  <use xlink:href="#glyph0-6" x="187.636719" y="295.092773"/>
  <use xlink:href="#glyph0-11" x="196.636719" y="295.092773"/>
  <use xlink:href="#glyph0-13" x="201.636719" y="295.092773"/>
  <use xlink:href="#glyph0-8" x="204.636719" y="295.092773"/>
  <use xlink:href="#glyph0-14" x="212.636719" y="295.092773"/>
  <use xlink:href="#glyph0-7" x="220.636719" y="295.092773"/>
  <use xlink:href="#glyph0-8" x="228.636719" y="295.092773"/>
  <use xlink:href="#glyph0-9" x="236.636719" y="295.092773"/>
  <use xlink:href="#glyph0-15" x="240.636719" y="295.092773"/>
  <use xlink:href="#glyph0-16" x="249.636719" y="295.092773"/>
  <use xlink:href="#glyph0-11" x="257.636719" y="295.092773"/>
  <use xlink:href="#glyph0-16" x="262.636719" y="295.092773"/>
  <use xlink:href="#glyph0-17" x="270.636719" y="295.092773"/>
</g>
<g style="fill:rgb(0%,0%,0%);fill-opacity:1;">
  <use xlink:href="#glyph0-18" x="300.117188" y="295.092773"/>
  <use xlink:href="#glyph0-19" x="308.117188" y="295.092773"/>
  <use xlink:href="#glyph0-13" x="316.117188" y="295.092773"/>
  <use xlink:href="#glyph0-20" x="319.117188" y="295.092773"/>
  <use xlink:href="#glyph0-9" x="326.117188" y="295.092773"/>
  <use xlink:href="#glyph0-21" x="330.117188" y="295.092773"/>
  <use xlink:href="#glyph0-22" x="340.117188" y="295.092773"/>
  <use xlink:href="#glyph0-14" x="348.117188" y="295.092773"/>
  <use xlink:href="#glyph0-11" x="356.117188" y="295.092773"/>
  <use xlink:href="#glyph0-13" x="361.117188" y="295.092773"/>
  <use xlink:href="#glyph0-23" x="364.117188" y="295.092773"/>
  <use xlink:href="#glyph0-19" x="372.117188" y="295.092773"/>
  <use xlink:href="#glyph0-16" x="380.117188" y="295.092773"/>
  <use xlink:href="#glyph0-17" x="388.117188" y="295.092773"/>
</g>
<g style="fill:rgb(0%,0%,0%);fill-opacity:1;">
  <use xlink:href="#glyph0-24" x="416.59375" y="295.092773"/>
  <use xlink:href="#glyph0-8" x="427.59375" y="295.092773"/>
  <use xlink:href="#glyph0-11" x="435.59375" y="295.092773"/>
  <use xlink:href="#glyph0-13" x="440.59375" y="295.092773"/>
  <use xlink:href="#glyph0-8" x="443.59375" y="295.092773"/>
  <use xlink:href="#glyph0-9" x="451.59375" y="295.092773"/>
  <use xlink:href="#glyph0-6" x="454.59375" y="295.092773"/>
  <use xlink:href="#glyph0-25" x="463.59375" y="295.092773"/>
  <use xlink:href="#glyph0-26" x="466.59375" y="295.092773"/>
  <use xlink:href="#glyph0-8" x="477.59375" y="295.092773"/>
  <use xlink:href="#glyph0-7" x="485.59375" y="295.092773"/>
  <use xlink:href="#glyph0-17" x="493.59375" y="295.092773"/>
  <use xlink:href="#glyph0-8" x="500.59375" y="295.092773"/>
</g>
<g style="fill:rgb(0%,0%,0%);fill-opacity:1;">
  <use xlink:href="#glyph0-24" x="519.074219" y="295.092773"/>
  <use xlink:href="#glyph0-8" x="530.074219" y="295.092773"/>
  <use xlink:href="#glyph0-19" x="538.074219" y="295.092773"/>
  <use xlink:href="#glyph0-11" x="546.074219" y="295.092773"/>
  <use xlink:href="#glyph0-13" x="551.074219" y="295.092773"/>
  <use xlink:href="#glyph0-17" x="554.074219" y="295.092773"/>
  <use xlink:href="#glyph0-13" x="561.074219" y="295.092773"/>
  <use xlink:href="#glyph0-22" x="564.074219" y="295.092773"/>
  <use xlink:href="#glyph0-9" x="572.074219" y="295.092773"/>
  <use xlink:href="#glyph0-27" x="576.074219" y="295.092773"/>
  <use xlink:href="#glyph0-13" x="586.074219" y="295.092773"/>
  <use xlink:href="#glyph0-12" x="589.074219" y="295.092773"/>
  <use xlink:href="#glyph0-16" x="596.074219" y="295.092773"/>
  <use xlink:href="#glyph0-26" x="604.074219" y="295.092773"/>
  <use xlink:href="#glyph0-28" x="615.074219" y="295.092773"/>
  <use xlink:href="#glyph0-11" x="623.074219" y="295.092773"/>
  <use xlink:href="#glyph0-16" x="628.074219" y="295.092773"/>
</g>
<g style="fill:rgb(0%,0%,0%);fill-opacity:1;">
  <use xlink:href="#glyph1-1" x="303.617188" y="314.454102"/>
  <use xlink:href="#glyph1-2" x="314.617188" y="314.454102"/>
  <use xlink:href="#glyph1-3" x="323.617188" y="314.454102"/>
  <use xlink:href="#glyph1-4" x="328.617188" y="314.454102"/>
  <use xlink:href="#glyph1-5" x="337.617188" y="314.454102"/>
  <use xlink:href="#glyph1-6" x="346.617188" y="314.454102"/>
  <use xlink:href="#glyph1-7" x="350.617188" y="314.454102"/>
  <use xlink:href="#glyph1-8" x="359.617188" y="314.454102"/>
  <use xlink:href="#glyph1-3" x="368.617188" y="314.454102"/>
  <use xlink:href="#glyph1-9" x="373.617188" y="314.454102"/>
  <use xlink:href="#glyph1-2" x="382.617188" y="314.454102"/>
</g>
<g style="fill:rgb(0%,0%,0%);fill-opacity:1;">
  <use xlink:href="#glyph2-1" x="12.09082" y="190.046875"/>
  <use xlink:href="#glyph2-2" x="12.09082" y="179.046875"/>
  <use xlink:href="#glyph2-3" x="12.09082" y="170.046875"/>
  <use xlink:href="#glyph2-4" x="12.09082" y="161.046875"/>
  <use xlink:href="#glyph2-5" x="12.09082" y="157.046875"/>
  <use xlink:href="#glyph2-6" x="12.09082" y="148.046875"/>
</g>
<path style=" stroke:none;fill-rule:nonzero;fill:rgb(100%,100%,100%);fill-opacity:1;" d="M 239.917969 358.558594 L 455.308594 358.558594 L 455.308594 330.320312 L 239.917969 330.320312 Z M 239.917969 358.558594 "/>
<g style="fill:rgb(0%,0%,0%);fill-opacity:1;">
  <use xlink:href="#glyph3-1" x="245.398438" y="350.032227"/>
  <use xlink:href="#glyph3-2" x="259.398438" y="350.032227"/>
  <use xlink:href="#glyph3-3" x="268.398438" y="350.032227"/>
  <use xlink:href="#glyph3-4" x="272.398438" y="350.032227"/>
  <use xlink:href="#glyph3-5" x="281.398438" y="350.032227"/>
  <use xlink:href="#glyph3-6" x="287.398438" y="350.032227"/>
  <use xlink:href="#glyph3-7" x="292.398438" y="350.032227"/>
  <use xlink:href="#glyph3-8" x="297.398438" y="350.032227"/>
  <use xlink:href="#glyph3-2" x="301.398438" y="350.032227"/>
  <use xlink:href="#glyph3-9" x="310.398438" y="350.032227"/>
  <use xlink:href="#glyph3-10" x="324.398438" y="350.032227"/>
  <use xlink:href="#glyph3-4" x="333.398438" y="350.032227"/>
  <use xlink:href="#glyph3-11" x="342.398438" y="350.032227"/>
</g>
<path style=" stroke:none;fill-rule:nonzero;fill:rgb(97.647059%,14.901961%,44.705882%);fill-opacity:1;" d="M 360.574219 352.371094 L 376.4375 352.371094 L 376.4375 336.507812 L 360.574219 336.507812 Z M 360.574219 352.371094 "/>
<path style=" stroke:none;fill-rule:nonzero;fill:rgb(18.431373%,30.980392%,30.980392%);fill-opacity:1;" d="M 406.792969 352.371094 L 422.65625 352.371094 L 422.65625 336.507812 L 406.792969 336.507812 Z M 406.792969 352.371094 "/>
<g style="fill:rgb(0%,0%,0%);fill-opacity:1;">
  <use xlink:href="#glyph0-29" x="385.617188" y="348.913086"/>
  <use xlink:href="#glyph0-13" x="394.617188" y="348.913086"/>
</g>
<g style="fill:rgb(0%,0%,0%);fill-opacity:1;">
  <use xlink:href="#glyph0-30" x="431.832031" y="348.913086"/>
  <use xlink:href="#glyph0-22" x="441.832031" y="348.913086"/>
</g>
<g style="fill:rgb(0%,0%,0%);fill-opacity:1;">
  <use xlink:href="#glyph4-1" x="48.671875" y="34.388672"/>
  <use xlink:href="#glyph4-2" x="56.671875" y="34.388672"/>
  <use xlink:href="#glyph4-3" x="62.671875" y="34.388672"/>
  <use xlink:href="#glyph4-4" x="65.671875" y="34.388672"/>
  <use xlink:href="#glyph4-5" x="71.671875" y="34.388672"/>
  <use xlink:href="#glyph4-6" x="74.671875" y="34.388672"/>
  <use xlink:href="#glyph4-7" x="80.671875" y="34.388672"/>
  <use xlink:href="#glyph4-5" x="86.671875" y="34.388672"/>
  <use xlink:href="#glyph4-8" x="89.671875" y="34.388672"/>
  <use xlink:href="#glyph4-2" x="97.671875" y="34.388672"/>
  <use xlink:href="#glyph4-9" x="103.671875" y="34.388672"/>
  <use xlink:href="#glyph4-3" x="109.671875" y="34.388672"/>
  <use xlink:href="#glyph4-10" x="112.671875" y="34.388672"/>
  <use xlink:href="#glyph4-2" x="116.671875" y="34.388672"/>
  <use xlink:href="#glyph4-11" x="122.671875" y="34.388672"/>
  <use xlink:href="#glyph4-5" x="124.671875" y="34.388672"/>
  <use xlink:href="#glyph4-12" x="127.671875" y="34.388672"/>
  <use xlink:href="#glyph4-13" x="133.671875" y="34.388672"/>
</g>
<g style="fill:rgb(0%,0%,0%);fill-opacity:1;">
  <use xlink:href="#glyph5-1" x="48.671875" y="16.149414"/>
  <use xlink:href="#glyph5-2" x="62.671875" y="16.149414"/>
  <use xlink:href="#glyph5-3" x="73.671875" y="16.149414"/>
  <use xlink:href="#glyph5-4" x="81.671875" y="16.149414"/>
  <use xlink:href="#glyph5-5" x="88.671875" y="16.149414"/>
  <use xlink:href="#glyph5-6" x="94.671875" y="16.149414"/>
  <use xlink:href="#glyph5-5" x="105.671875" y="16.149414"/>
  <use xlink:href="#glyph5-7" x="111.671875" y="16.149414"/>
  <use xlink:href="#glyph5-2" x="123.671875" y="16.149414"/>
  <use xlink:href="#glyph5-6" x="134.671875" y="16.149414"/>
  <use xlink:href="#glyph5-5" x="145.671875" y="16.149414"/>
  <use xlink:href="#glyph5-8" x="151.671875" y="16.149414"/>
  <use xlink:href="#glyph5-9" x="163.671875" y="16.149414"/>
  <use xlink:href="#glyph5-10" x="175.671875" y="16.149414"/>
  <use xlink:href="#glyph5-11" x="181.671875" y="16.149414"/>
  <use xlink:href="#glyph5-12" x="196.671875" y="16.149414"/>
  <use xlink:href="#glyph5-9" x="208.671875" y="16.149414"/>
  <use xlink:href="#glyph5-4" x="220.671875" y="16.149414"/>
  <use xlink:href="#glyph5-3" x="227.671875" y="16.149414"/>
  <use xlink:href="#glyph5-12" x="235.671875" y="16.149414"/>
  <use xlink:href="#glyph5-13" x="247.671875" y="16.149414"/>
</g>
</g>
</svg>
